<svg height="526.91" viewBox="0 0 319.08 526.91" width="319.08" xmlns="http://www.w3.org/2000/svg" xmlns:xlink="http://www.w3.org/1999/xlink">
    <clipPath id="a">
        <path d="m0 0h319.08v526.91h-319.08z" />
    </clipPath>
    <g clip-path="url(#a)">
        <g clip-path="url(#a)" fill="#ffffff">
            <path d="m275.34 5.85h-98.29a136.79 136.79 0 0 0 -39.67-5.85c-75.75 0-137.38 61.63-137.38 137.38a137.13 137.13 0 0 0 47.32 103.62 87.12 87.12 0 0 0 62.35 148h15.27l51.2-.43a39.14 39.14 0 0 1 -.11 78.27v60a99.13 99.13 0 1 0 0-198.25l-51.24.42h-15.13a27.19 27.19 0 1 1 0-54.37h24.68 3c75.75 0 137.38-61.63 137.38-137.38a136.54 136.54 0 0 0 -23.9-77.26h24.52zm-138 208.91h-1.52a76.15 76.15 0 1 1 1.52 0" />
            <path d="m303.91 30.35a15.18 15.18 0 1 1 15.17-15.18 15.2 15.2 0 0 1 -15.17 15.18m0-27.41a12.24 12.24 0 1 0 12.23 12.23 12.25 12.25 0 0 0 -12.23-12.23" />
            <path d="m306.41 17a4.42 4.42 0 0 0 2-1.15 4.51 4.51 0 0 0 1.25-3.25 4.63 4.63 0 0 0 -4.86-4.65h-6.27v14.05h2.47v-4.77h2.38l4.12 4.52.22.24h3.28zm-5.41-6.69h3.83a2.32 2.32 0 0 1 1.71.64 2.24 2.24 0 0 1 .62 1.62c0 1.52-.81 2.27-2.44 2.27h-3.72z" />
        </g>
    </g>
</svg>
