<?xml version="1.0" encoding="utf-8"?>
<!-- Generator: Adobe Illustrator 24.1.0, SVG Export Plug-In . SVG Version: 6.00 Build 0)  -->
<svg version="1.1" id="Lager_1" xmlns="http://www.w3.org/2000/svg" xmlns:xlink="http://www.w3.org/1999/xlink" x="0px" y="0px" viewBox="0 0 1920 1080" style="enable-background:new 0 0 1920 1080;" xml:space="preserve">
	<style type="text/css">
		.st0 {
			clip-path: url(#SVGID_2_);
		}

		.st1 {
			fill: none;
			stroke: #D3D2D2;
			stroke-linecap: round;
			stroke-linejoin: round;
			stroke-opacity: 0.5;
		}

		.st2 {
			fill: #EAEAEA;
			stroke: #BABABA;
			stroke-width: 1.5;
			stroke-miterlimit: 10;
		}

		.st3 {
			clip-path: url(#SVGID_4_);
		}

		.st4 {
			fill: #7F7F7F;
		}

		.st5 {
			fill: #EFEFEF;
			stroke: #BABABA;
			stroke-width: 1.5;
			stroke-miterlimit: 10;
		}

		.st6 {
			fill: #EAEAEA;
			stroke: #C6C6C6;
			stroke-width: 1.5;
			stroke-linecap: round;
			stroke-linejoin: round;
		}

		.st7 {
			fill: none;
			stroke: #C6C6C6;
			stroke-width: 1.5;
			stroke-linecap: round;
			stroke-linejoin: round;
		}

		.st8 {
			fill: none;
			stroke: #C6C6C6;
			stroke-linecap: round;
			stroke-linejoin: round;
		}

		.st9 {
			opacity: 0.44;
			fill: none;
			stroke: #C6C6C6;
			stroke-width: 1.5;
			stroke-linecap: round;
			stroke-linejoin: round;
			enable-background: new;
		}

		.st10 {
			opacity: 0.26;
			fill: #D3D3D3;
			enable-background: new;
		}

		.st11 {
			fill: #F7F7F7;
			stroke: #BABABA;
			stroke-width: 1.5;
			stroke-linecap: round;
			stroke-linejoin: round;
		}

		.st12 {
			fill: #FFE000;
			stroke: #F2F2F2;
			stroke-width: 1.5;
			stroke-miterlimit: 10;
		}

		.st13 {
			opacity: 0.26;
		}

		.st14 {
			fill: #D3D3D3;
		}

		.st15 {
			fill: #FFE000;
		}

		.st16 {
			fill: none;
			stroke: #BABABA;
			stroke-width: 1.5;
			stroke-linecap: round;
			stroke-linejoin: round;
		}

		.st17 {
			fill: none;
			stroke: #BABABA;
			stroke-width: 1.4922;
			stroke-linecap: round;
			stroke-linejoin: round;
			stroke-miterlimit: 3.9791;
		}

		.st18 {
			fill: #BABABA;
		}

		.st19 {
			fill: #F7F7F7;
			stroke: #BABABA;
			stroke-width: 1.5;
			stroke-miterlimit: 10;
		}

		.st20 {
			fill: #EDEDED;
		}

		.st21 {
			fill: #E8E8E8;
		}

		.st22 {
			fill: none;
			stroke: #BABABA;
			stroke-width: 1.5;
			stroke-miterlimit: 10;
		}

		.st23 {
			fill: none;
			stroke: #D3D3D3;
			stroke-miterlimit: 10;
		}

		.st24 {
			fill: #F7F7F7;
			stroke: #C6C6C6;
			stroke-linecap: round;
			stroke-linejoin: round;
		}

		.st25 {
			opacity: 0.44;
			fill: none;
			stroke: #C6C6C6;
			stroke-linecap: round;
			stroke-linejoin: round;
			enable-background: new;
		}

		.st26 {
			fill: none;
			stroke: #BABABA;
			stroke-width: 0.75;
			stroke-linecap: round;
			stroke-linejoin: round;
		}

		.st27 {
			fill: #F7F7F7;
		}

		.st28 {
			fill: #EAEAEA;
		}

	</style>
	<g>
		<defs>
			<rect id="SVGID_1_" x="0.5" y="0.5" width="1919" height="1079" />
		</defs>
		<clipPath id="SVGID_2_">
			<use xlink:href="#SVGID_1_" style="overflow:visible;" />
		</clipPath>
		<g class="st0">
			<path class="st1" d="M-976.1,563L1047.3-605.3" />
			<path class="st1" d="M-863.7,1341.8l1911-1103.3" />
			<path class="st1" d="M-751.3,1341.8L1047.3,303.4" />
			<path class="st1" d="M-638.9,1341.8l1686.2-973.5" />
			<path class="st1" d="M-526.5,1341.8l1573.8-908.6" />
			<path class="st1" d="M-414,1341.8l1461.4-843.7" />
			<path class="st1" d="M-301.6,1341.8l1349-778.8" />
			<path class="st1" d="M-189.2,1341.8l1236.6-713.9" />
			<path class="st1" d="M-76.8,1341.8l1124.1-649" />
			<path class="st1" d="M35.6,1341.8l1011.7-584.1" />
			<path class="st1" d="M148,1341.8l899.3-519.2" />
			<path class="st1" d="M260.5,1341.8l786.9-454.3" />
			<path class="st1" d="M372.9,1341.8l674.5-389.4" />
			<path class="st1" d="M485.3,1341.8l562.1-324.5" />
			<path class="st1" d="M1047.3,238.5L-526.5-670.2" />
			<path class="st1" d="M1047.3,303.4L-638.9-670.2" />
			<path class="st1" d="M1047.3,368.3L-751.3-670.2" />
			<path class="st1" d="M1047.3,433.2l-1911-1103.3" />
			<path class="st1" d="M-976.1,822.6L1047.3-345.7" />
			<path class="st1" d="M-976.1,757.7L1047.3-410.5" />
			<path class="st1" d="M-976.1,692.8L1047.3-475.5" />
			<path class="st1" d="M-976.1,627.9L1047.3-540.3" />
			<path class="st1" d="M1047.3,43.8L-189.2-670.2" />
			<path class="st1" d="M1047.3,108.7l-1349-778.8" />
			<path class="st1" d="M1047.3,173.6L-414-670.2" />
			<path class="st1" d="M35.6,1341.8L-976.1,757.7" />
			<path class="st1" d="M148,1341.8l-1124.1-649" />
			<path class="st1" d="M260.5,1341.8L-976.1,627.9" />
			<path class="st1" d="M372.9,1341.8L-976.1,563" />
			<path class="st1" d="M485.3,1341.8L-976.1,498.1" />
			<path class="st1" d="M597.7,1341.8L-976.1,433.2" />
			<path class="st1" d="M710.1,1341.8L-976.1,368.3" />
			<path class="st1" d="M822.5,1341.8L-976.1,303.4" />
			<path class="st1" d="M934.9,1341.8l-1911-1103.3" />
			<path class="st1" d="M1047.3,1341.8L-976.1,173.6" />
			<path class="st1" d="M1047.3,1276.9L-976.1,108.7" />
			<path class="st1" d="M1047.3,1212L-976.1,43.8" />
			<path class="st1" d="M1047.3,1147.1L-976.1-21.1" />
			<path class="st1" d="M1047.3,1082.2L-976.1-86" />
			<path class="st1" d="M1047.3,1017.3L-976.1-150.9" />
			<path class="st1" d="M1047.3,952.4L-976.1-215.8" />
			<path class="st1" d="M1047.3,887.5L-976.1-280.7" />
			<path class="st1" d="M1047.3,822.6L-976.1-345.7" />
			<path class="st1" d="M1047.3,757.7L-976.1-410.5" />
			<path class="st1" d="M1047.3,498.1L-976.1-670.2" />
			<path class="st1" d="M1047.3,563L-976.1-605.3" />
			<path class="st1" d="M1047.3,627.9L-976.1-540.3" />
			<path class="st1" d="M1047.3,692.8L-976.1-475.5" />
			<path class="st1" d="M-976.1,1082.2L1047.3-86" />
			<path class="st1" d="M-976.1,1017.3L1047.3-150.9" />
			<path class="st1" d="M-976.1,952.4L1047.3-215.8" />
			<path class="st1" d="M-976.1,887.5L1047.3-280.7" />
			<path class="st1" d="M-976.1,1147.1L1047.3-21.1" />
			<path class="st1" d="M-976.1,1212L1047.3,43.8" />
			<path class="st1" d="M-976.1,1276.9L1047.3,108.7" />
			<path class="st1" d="M-976.1,1341.8L1047.3,173.6" />
			<path class="st1" d="M-976.1,498.1L1047.3-670.2" />
			<path class="st1" d="M-976.1,433.2l1911-1103.3" />
			<path class="st1" d="M-976.1,368.3L822.5-670.2" />
			<path class="st1" d="M-976.1,303.4L710.1-670.2" />
			<path class="st1" d="M-976.1,238.5L597.7-670.2" />
			<path class="st1" d="M-976.1,173.6L485.3-670.2" />
			<path class="st1" d="M-976.1,108.7l1349-778.8" />
			<path class="st1" d="M-976.1,43.8L260.5-670.2" />
			<path class="st1" d="M1047.3,563L3070.8-605.3" />
			<path class="st1" d="M1159.8,1341.8L3070.8,238.5" />
			<path class="st1" d="M1272.2,1341.8L3070.8,303.4" />
			<path class="st1" d="M1384.6,1341.8l1686.2-973.5" />
			<path class="st1" d="M1497,1341.8l1573.8-908.6" />
			<path class="st1" d="M1609.4,1341.8l1461.4-843.7" />
			<path class="st1" d="M1721.8,1341.8l1349-778.8" />
			<path class="st1" d="M1834.2,1341.8l1236.6-713.9" />
			<path class="st1" d="M1609.4,1341.8l-562.1-324.5" />
			<path class="st1" d="M3070.8,238.5L1497-670.2" />
			<path class="st1" d="M3070.8,303.4L1384.6-670.2" />
			<path class="st1" d="M3070.8,368.3L1272.2-670.2" />
			<path class="st1" d="M3070.8,433.2L1159.8-670.2" />
			<path class="st1" d="M1047.3,822.6L3070.8-345.7" />
			<path class="st1" d="M1047.3,757.7L3070.8-410.5" />
			<path class="st1" d="M1047.3,692.8L3070.8-475.5" />
			<path class="st1" d="M1047.3,627.9L3070.8-540.3" />
			<path class="st1" d="M3070.8,43.8L1834.2-670.2" />
			<path class="st1" d="M3070.8,108.7l-1349-778.8" />
			<path class="st1" d="M3070.8,173.6L1609.4-670.2" />
			<path class="st1" d="M1721.8,1341.8l-674.5-389.4" />
			<path class="st1" d="M1834.2,1341.8l-786.9-454.3" />
			<path class="st1" d="M1946.7,1341.8l-899.3-519.2" />
			<path class="st1" d="M2059.1,1341.8L1047.4,757.7" />
			<path class="st1" d="M2171.5,1341.8l-1124.1-649" />
			<path class="st1" d="M2283.9,1341.8L1047.3,627.9" />
			<path class="st1" d="M2396.3,1341.8L1047.4,563" />
			<path class="st1" d="M2508.7,1341.8L1047.3,498.1" />
			<path class="st1" d="M2621.1,1341.8L1047.3,433.2" />
			<path class="st1" d="M2733.6,1341.8L1047.4,368.3" />
			<path class="st1" d="M2846,1341.8L1047.3,303.4" />
			<path class="st1" d="M2958.4,1341.8l-1911-1103.3" />
			<path class="st1" d="M3070.8,1341.8L1047.4,173.6" />
			<path class="st1" d="M3070.8,1276.9L1047.4,108.7" />
			<path class="st1" d="M3070.8,1212L1047.4,43.8" />
			<path class="st1" d="M3070.8,1147.1L1047.4-21.1" />
			<path class="st1" d="M3070.8,1082.2L1047.4-86" />
			<path class="st1" d="M3070.8,1017.3L1047.4-150.9" />
			<path class="st1" d="M3070.8,952.4L1047.4-215.8" />
			<path class="st1" d="M3070.8,887.5L1047.4-280.7" />
			<path class="st1" d="M3070.8,822.6L1047.4-345.7" />
			<path class="st1" d="M3070.8,757.7L1047.4-410.5" />
			<path class="st1" d="M3070.8,498.1L1047.4-670.2" />
			<path class="st1" d="M3070.8,563L1047.4-605.3" />
			<path class="st1" d="M3070.8,627.9L1047.4-540.3" />
			<path class="st1" d="M3070.8,692.8L1047.4-475.5" />
			<path class="st1" d="M1047.3,1082.2L3070.8-86" />
			<path class="st1" d="M1047.3,1017.3L3070.8-150.9" />
			<path class="st1" d="M1047.3,952.4L3070.8-215.8" />
			<path class="st1" d="M1047.3,887.5L3070.8-280.7" />
			<path class="st1" d="M1047.3,1147.1L3070.8-21.1" />
			<path class="st1" d="M1047.3,1212L3070.8,43.8" />
			<path class="st1" d="M1047.3,1276.9L3070.8,108.7" />
			<path class="st1" d="M1047.3,1341.8L3070.8,173.6" />
			<path class="st1" d="M1047.3,498.1L3070.8-670.2" />
			<path class="st1" d="M1047.3,433.2l1911-1103.3" />
			<path class="st1" d="M1047.3,368.3L2846-670.2" />
			<path class="st1" d="M1047.3,303.4l1686.2-973.5" />
			<path class="st1" d="M1047.3,238.5l1573.8-908.6" />
			<path class="st1" d="M1047.3,173.6l1461.4-843.7" />
			<path class="st1" d="M1047.3,108.7l1349-778.8" />
			<path class="st1" d="M1047.3,43.8l1236.6-713.9" />
		</g>
	</g>
	<path class="st2" d="M1441.5,465.8c-0.8-0.5-1.6-0.9-2.4-1.3l-0.8-0.4c-0.6-0.3-1.1-0.6-1.7-0.8l-1-0.5c-0.5-0.2-1.1-0.5-1.6-0.7
	l-1.1-0.5l-1.1-0.4l-0.6-0.2l-0.7-0.3c-0.7-0.3-1.4-0.5-2.1-0.8l-0.5-0.2c-0.9-0.3-1.7-0.6-2.6-0.8l-0.7-0.2l-1.1-0.3l-1.2-0.3
	l-0.3-0.1c-0.9-0.2-1.8-0.5-2.7-0.7l-0.5-0.1c-0.8-0.2-1.6-0.4-2.3-0.5l-0.2,0c-0.7-0.1-1.4-0.3-2.1-0.4l-1.2-0.2
	c-0.9-0.2-1.7-0.3-2.6-0.4l-0.7-0.1h0c-1.1-0.2-2.2-0.3-3.3-0.4l-0.3,0c-1-0.1-2-0.2-3-0.3h0l-1.1-0.1c-0.7-0.1-1.5-0.1-2.2-0.2
	l-1.3-0.1l-2-0.1h-1.2c-0.7,0-1.4,0-2.2,0h-1.4c-0.7,0-1.3,0-2,0h-0.4c-0.8,0-1.5,0.1-2.3,0.1h-0.5c-1,0.1-2,0.1-2.9,0.2h0
	c-0.6,0.1-1.2,0.1-1.8,0.2l-1,0.1l-0.7,0.1c-0.9,0.1-1.9,0.2-2.8,0.4l-0.4,0.1l-2.5,0.4l-0.7,0.1l-0.6,0.1l-1,0.2l-1.8,0.4l-1.4,0.3
	c-0.6,0.1-1.2,0.3-1.7,0.4c-0.6,0.1-1,0.2-1.4,0.4l-1.7,0.4l-1.4,0.4c-0.6,0.2-1.1,0.3-1.7,0.5l-0.7,0.2c-0.3,0.1-0.6,0.2-1,0.3
	l-0.6,0.2c-0.9,0.3-1.7,0.6-2.5,0.9l-0.4,0.2c-0.7,0.3-1.4,0.6-2.1,0.8l-0.6,0.3c-0.8,0.4-1.6,0.7-2.4,1.1l-0.3,0.1
	c-0.7,0.3-1.4,0.7-2.1,1l-0.6,0.3c-0.8,0.4-1.5,0.8-2.3,1.2l-0.8,0.5l-0.2,0.1l-0.6,0.4l-0.6,0.4l-0.6,0.4c-0.2,0.1-0.4,0.2-0.5,0.4
	l-0.6,0.4l-0.5,0.4l-0.6,0.4l-0.5,0.4l-0.6,0.4l-0.5,0.4l-0.5,0.4l-0.5,0.4l-0.5,0.4l-0.4,0.4l-0.5,0.5l-0.4,0.3l0,0
	c-0.4,0.3-0.7,0.7-1,1l-0.3,0.3c-0.3,0.3-0.5,0.5-0.7,0.8l-0.3,0.3l-0.8,0.8l-0.2,0.2c-0.3,0.3-0.6,0.7-0.9,1l-0.1,0.1
	c-0.1,0.1-0.1,0.2-0.2,0.3l-0.5,0.6l-0.3,0.4l-0.4,0.6l-0.3,0.4l-0.4,0.6l-0.2,0.4l-0.4,0.6l-0.2,0.3c0,0,0,0.1,0,0.1
	c-0.1,0.2-0.2,0.4-0.3,0.6l-0.2,0.4l-0.3,0.6l-0.1,0.3c-0.1,0.3-0.3,0.6-0.4,0.9v0c-0.1,0.3-0.3,0.6-0.4,0.9l-0.1,0.3
	c-0.1,0.2-0.1,0.4-0.2,0.6l-0.1,0.4c-0.1,0.2-0.1,0.4-0.2,0.5c0,0.2-0.1,0.3-0.1,0.4c0,0.1-0.1,0.4-0.1,0.5c0,0.2-0.1,0.3-0.1,0.4
	s-0.1,0.3-0.1,0.5v0.1c0,0.1,0,0.2-0.1,0.3c-0.1,0.1-0.1,0.4-0.1,0.5l-0.1,0.4c0,0.2-0.1,0.4-0.1,0.5l0,0.4c0,0.2,0,0.3,0,0.5
	c0,0.2,0,0.3,0,0.4c0,0.2,0,0.3,0,0.5v0.2v0.6l-0.1,47.2c0-0.3,0-0.5,0-0.8c0-0.2,0-0.3,0-0.5c0-0.2,0-0.3,0-0.4s0-0.3,0-0.5
	c0-0.2,0-0.3,0-0.4c0-0.1,0-0.4,0.1-0.5c0-0.2,0-0.3,0.1-0.4c0-0.1,0.1-0.4,0.1-0.5l0.1-0.4c0-0.2,0.1-0.4,0.1-0.5
	c0-0.2,0.1-0.3,0.1-0.4s0.1-0.4,0.1-0.5c0-0.2,0.1-0.3,0.1-0.4s0.1-0.4,0.2-0.6s0.1-0.3,0.1-0.4c0-0.1,0.1-0.4,0.2-0.6
	s0.1-0.2,0.1-0.4c0.1-0.3,0.2-0.6,0.4-0.9v-0.1c0.1-0.3,0.3-0.6,0.4-0.9c0-0.1,0.1-0.2,0.2-0.3c0.1-0.1,0.2-0.4,0.3-0.6
	c0.1-0.2,0.1-0.2,0.2-0.4s0.2-0.4,0.3-0.6l0.2-0.3c0.1-0.2,0.2-0.4,0.4-0.6l0.2-0.4c0.1-0.2,0.3-0.4,0.4-0.6l0.3-0.4l0.4-0.6
	c0.1-0.1,0.2-0.3,0.3-0.4c0.1-0.1,0.3-0.4,0.5-0.6l0.3-0.3c0.3-0.4,0.6-0.7,0.9-1c0.1-0.1,0.1-0.1,0.2-0.2c0.2-0.3,0.5-0.6,0.7-0.8
	l0.3-0.3c0.2-0.3,0.5-0.5,0.7-0.8l0.3-0.3c0.3-0.3,0.7-0.7,1-1l0.4-0.4c0.2-0.2,0.3-0.3,0.5-0.4s0.3-0.2,0.4-0.4l0.5-0.4
	c0.1-0.1,0.3-0.2,0.5-0.4l0.5-0.4l0.5-0.4l0.6-0.4l0.5-0.4l0.6-0.4l0.5-0.4l0.6-0.4l0.5-0.4l0.6-0.4l0.6-0.4
	c0.2-0.1,0.4-0.3,0.6-0.4l1-0.6c0.7-0.4,1.5-0.8,2.2-1.2l0.6-0.3c0.7-0.4,1.4-0.7,2.1-1l0.3-0.1c0.8-0.4,1.6-0.7,2.4-1.1l0.6-0.3
	c0.7-0.3,1.4-0.6,2.1-0.9l0.4-0.2c0.8-0.3,1.7-0.6,2.5-0.9l0.6-0.2l1.6-0.5l1.7-0.5l1.4-0.4c0.6-0.2,1.1-0.3,1.7-0.5l1.4-0.4
	l1.7-0.4c0.5-0.1,1-0.2,1.4-0.3c0.5-0.1,1.2-0.2,1.8-0.4c0.6-0.1,1.1-0.2,1.6-0.3l0.7-0.1c0.8-0.1,1.7-0.3,2.5-0.4l0.4-0.1
	c0.9-0.1,1.9-0.2,2.8-0.4l0.7-0.1c0.9-0.1,1.8-0.2,2.8-0.3h0.1c1-0.1,1.9-0.1,2.9-0.2l0.5,0c0.9,0,1.8-0.1,2.7-0.1c0.7,0,1.3,0,2,0
	h1.4h2.2h1.2c0.7,0,1.3,0,2,0.1l1.3,0.1c0.7,0,1.5,0.1,2.2,0.2c0.4,0,0.7,0,1.1,0.1c1,0.1,2,0.2,3,0.3h0.3c1.1,0.1,2.2,0.3,3.3,0.4
	l0.7,0.1c0.9,0.1,1.7,0.3,2.6,0.4l1.2,0.2l2.1,0.4c0.9,0.2,1.7,0.4,2.6,0.6l0.5,0.1c0.9,0.2,1.8,0.4,2.7,0.7l0.3,0.1
	c0.8,0.2,1.6,0.4,2.3,0.7l0.7,0.2c0.9,0.3,1.7,0.5,2.6,0.8l0.5,0.2c0.7,0.2,1.4,0.5,2.1,0.8l0.7,0.3l1.7,0.7l1.1,0.5
	c0.5,0.2,1.1,0.5,1.6,0.7c0.3,0.2,0.7,0.3,1,0.5c0.6,0.3,1.1,0.6,1.7,0.8c0.3,0.1,0.6,0.3,0.8,0.4c0.8,0.4,1.7,0.9,2.4,1.3
	c13.4,7.7,20,17.9,20,28.1l0.1-47.2C1461.6,483.7,1454.9,473.5,1441.5,465.8L1441.5,465.8z" />
	<g>
		<defs>
			<path id="SVGID_3_" d="M1272.7,540.6l0.1-47.2c0,1.8,0.1,3.5,0.3,5.2l-0.1,47.2C1272.8,544.1,1272.7,542.3,1272.7,540.6z" />
		</defs>
		<clipPath id="SVGID_4_">
			<use xlink:href="#SVGID_3_" style="overflow:visible;" />
		</clipPath>
		<g class="st3">
			<path class="st4" d="M1273.1,498.6l-0.1,47.2c-0.2-1.7-0.3-3.5-0.3-5.2l0.1-47.2C1272.8,495.1,1272.9,496.8,1273.1,498.6" />
		</g>
	</g>
	<path class="st2" d="M1527.6,515.5l-0.1,47.2l-15.3-8.8l0.1-47.2L1527.6,515.5z" />
	<path class="st2" d="M1527.6,515.5l-0.1,47.2l33.6-19.5l0.1-47.2L1527.6,515.5z" />
	<path class="st2" d="M1511.9,507.8c0,0.1-0.1,0.3-0.1,0.4c-0.1,0.2-0.2,0.5-0.3,0.7c-0.2,0.5-0.4,1-0.6,1.5c0,0.1-0.1,0.2-0.1,0.3
	c-0.2,0.4-0.4,0.8-0.6,1.3l-0.2,0.4c-0.2,0.5-0.4,0.9-0.7,1.4l-0.1,0.2c-0.3,0.5-0.5,1-0.8,1.5l-0.2,0.4c-0.3,0.5-0.5,0.9-0.8,1.4
	l-0.2,0.3c-0.3,0.5-0.7,1.1-1,1.6l-0.2,0.4c-0.3,0.4-0.6,0.9-0.9,1.4c-0.1,0.1-0.1,0.2-0.2,0.3c-0.4,0.5-0.8,1-1.2,1.5l-0.5,0.6
	l-0.3,0.4l-0.7,0.8l-0.2,0.3c-0.3,0.4-0.6,0.7-1,1.1l-0.3,0.3l-0.7,0.8c-0.1,0.1-0.3,0.3-0.4,0.4l-0.6,0.7l-0.4,0.4l-0.6,0.6
	l-0.4,0.4l-0.7,0.6l-0.4,0.4l-0.5,0.4l-1.1,1l-0.4,0.4c-0.5,0.4-0.9,0.8-1.4,1.2l-0.1,0.1c-0.5,0.4-1.1,0.9-1.6,1.3l-0.5,0.4
	c-0.4,0.3-0.8,0.6-1.2,0.9l-0.5,0.4c-0.5,0.4-1.1,0.8-1.6,1.2l-0.1,0.1c-0.6,0.4-1.2,0.8-1.8,1.2l-0.5,0.4l-1.4,0.9l-0.6,0.4
	c-0.6,0.4-1.2,0.7-1.8,1.1l-0.2,0.1l-1.7,1c-0.9,0.5-1.8,1-2.8,1.5l-0.8,0.4c-0.7,0.4-1.4,0.8-2.2,1.1l-0.7,0.4
	c-0.9,0.5-1.9,0.9-2.8,1.4l-0.5,0.2c-0.8,0.4-1.6,0.8-2.5,1.1l-0.9,0.4c-0.8,0.3-1.6,0.7-2.4,1l-0.6,0.3c-1,0.4-2,0.8-3,1.2
	l-0.7,0.3c-0.8,0.3-1.6,0.6-2.4,0.9l-0.9,0.3c-0.9,0.3-1.9,0.6-2.8,0.9l-0.4,0.1c-0.9,0.3-1.8,0.6-2.7,0.9h-0.1l-2.7,0.8l-0.9,0.2
	l-1.8,0.5l-1.1,0.3l-1.7,0.4c-0.4,0.1-0.8,0.2-1.2,0.3l-1.6,0.4l-1.2,0.3l-1.6,0.3c-0.4,0.1-0.9,0.2-1.3,0.3l-1.6,0.3l-1.3,0.2
	l-1.6,0.3l-1.1,0.2l-2.6,0.4l-0.9,0.1c-1.1,0.2-2.3,0.4-3.5,0.5l-0.7,0.1c-0.9,0.1-1.9,0.2-2.8,0.4l-1.1,0.1l-2.8,0.3l-0.7,0.1
	c-1,0.1-2.1,0.2-3.1,0.3h-0.4c-0.9,0.1-1.8,0.1-2.7,0.2l-1.1,0.1l-2.1,0.1l-1.2,0.1c-0.7,0-1.3,0.1-2,0.1l-1.3,0l-1.7,0h-1.4
	c-0.6,0-1.1,0-1.7,0h-3h-1.3h-1.7h-1.3l-1.6,0l-1.3,0l-1.6-0.1l-1.3-0.1c-0.6,0-1.1-0.1-1.7-0.1l-1.3-0.1l-1.7-0.1l-1.1-0.1
	l-1.8-0.2l-1.1-0.1c-0.8-0.1-1.6-0.2-2.4-0.2l-0.5-0.1c-1-0.1-1.9-0.2-2.9-0.3l-0.9-0.1c-0.7-0.1-1.4-0.2-2-0.3l-0.9-0.2l-2-0.3
	l-1.1-0.2l-1.8-0.3l-1.2-0.2l-1.7-0.3l-1.3-0.2l-1.6-0.3l-1.2-0.2l-1.9-0.4l-1.2-0.3l-1.8-0.4l-1.1-0.3l-1.9-0.5l-1-0.3l-2.5-0.7
	l-0.4-0.1c-1.1-0.3-2.2-0.6-3.3-1l-0.9-0.3l-2.7-0.9l-0.7-0.2c-1.1-0.4-2.1-0.7-3.2-1.1l-0.7-0.3c-0.9-0.3-1.7-0.6-2.6-1l-1-0.4
	l-1-0.4l-1.3-0.6l-1-0.4l-1.3-0.6l-1-0.5l-1.3-0.6l-1-0.5l-1.3-0.6l-0.9-0.5c-0.5-0.2-0.9-0.5-1.4-0.7l-0.9-0.4l-1.5-0.8l-0.7-0.4
	c-0.7-0.4-1.4-0.8-2.2-1.2s-1.3-0.7-1.9-1.1l-15.4-8.9l-0.9-0.5l-0.3-0.1l-0.6-0.3l-0.4-0.2l-0.6-0.2l-0.4-0.2l-0.4-0.2l-0.1-0.1
	c-0.4-0.2-0.8-0.3-1.3-0.5l-0.2-0.1c-0.4-0.1-0.8-0.2-1.1-0.4l-0.2-0.1l-0.2-0.1l-0.7-0.2l-0.4-0.1l-0.8-0.2l-0.3-0.1h-0.1
	c-0.2-0.1-0.5-0.1-0.7-0.1l-0.4-0.1l-0.9-0.1l-0.2,0c-0.4-0.1-0.8-0.1-1.1-0.1h-0.2l-1-0.1h-0.4l-0.8-0.1h-0.5h-0.7h-1.8h-0.7h-0.1
	h-0.3l-0.8,0h-0.5l-0.8,0.1h-0.3h-0.2c-0.4,0-0.8,0.1-1.2,0.1h-0.2c-0.5,0.1-0.9,0.1-1.4,0.2h-0.1l-0.4,0.1l-0.6,0.1l-0.5,0.1
	l-0.6,0.1l-0.5,0.1l-0.6,0.2l-0.5,0.1l-0.6,0.2l-0.3,0.1l-0.2,0.1c-0.4,0.1-0.7,0.2-1,0.4l-0.2,0.1c-0.4,0.2-0.8,0.3-1.2,0.5
	l-0.3,0.1c-0.3,0.1-0.6,0.3-0.9,0.4l-0.3,0.2c-0.4,0.2-0.7,0.4-1.1,0.6l-0.3,0.2l-0.3,0.2c-0.1,0.1-0.3,0.2-0.4,0.3l-0.4,0.3
	l-0.4,0.3l-0.4,0.3l-0.4,0.3l-0.3,0.3l-0.3,0.3l-0.1,0.1l-0.1,0.1l-0.5,0.5l-0.2,0.2c-0.2,0.2-0.4,0.5-0.6,0.7v0
	c0,0.1-0.1,0.1-0.1,0.2l-0.3,0.5l-0.2,0.3c-0.1,0.1-0.2,0.3-0.3,0.4c0,0,0,0.1-0.1,0.1l-0.1,0.2l-0.2,0.4c0,0.1-0.1,0.2-0.1,0.3
	s-0.1,0.2-0.2,0.4c0,0.1,0,0.1-0.1,0.2c0,0,0,0.1,0,0.1c0,0-0.1,0.2-0.1,0.3c0,0.1-0.1,0.2-0.1,0.3c0,0.1-0.1,0.2-0.1,0.3
	c0,0.1,0,0.1,0,0.2v0.1c0,0.1,0,0.2-0.1,0.4l0,0.3v0.4c0,0,0,0.2,0,0.4v0.1l-0.1,47.2c0-0.1,0-0.3,0-0.4s0-0.2,0-0.4s0-0.2,0-0.3
	c0-0.1,0-0.2,0.1-0.4c0-0.1,0-0.2,0.1-0.3c0-0.1,0.1-0.2,0.1-0.4c0-0.1,0.1-0.2,0.1-0.3c0-0.1,0.1-0.2,0.1-0.4l0.1-0.3
	c0-0.1,0.1-0.2,0.2-0.4l0.1-0.3c0.1-0.1,0.1-0.2,0.2-0.4s0.1-0.2,0.2-0.3l0.3-0.4l0.2-0.3c0.1-0.2,0.2-0.3,0.3-0.5
	c0.1-0.2,0.1-0.1,0.1-0.2c0.2-0.2,0.4-0.5,0.6-0.7l0.2-0.2c0.2-0.2,0.4-0.4,0.5-0.5l0.3-0.2l0.3-0.3c0.1-0.1,0.2-0.2,0.3-0.3
	l0.4-0.3l0.4-0.3l0.4-0.3l0.4-0.3l0.4-0.3c0.2-0.1,0.4-0.2,0.6-0.3c0.4-0.2,0.7-0.4,1.1-0.6l0.3-0.2l0.9-0.4l0.3-0.1
	c0.4-0.2,0.8-0.3,1.2-0.5l0.2-0.1c0.3-0.1,0.7-0.3,1-0.4l0.4-0.1l0.6-0.2l0.5-0.1l0.6-0.2l0.5-0.1l0.6-0.1l0.5-0.1l0.6-0.1l0.5-0.1
	c0.4-0.1,0.9-0.2,1.4-0.2h0.2c0.4-0.1,0.8-0.1,1.2-0.1l0.5,0c0.3,0,0.5,0,0.8-0.1h0.5l0.8,0h0.5h0.7h1.7h0.7h0.5l0.8,0.1h0.4
	c0.3,0,0.7,0.1,1,0.1h0.2c0.4,0,0.8,0.1,1.1,0.1h0.2c0.3,0,0.6,0.1,0.9,0.1l0.4,0.1l0.7,0.1l0.4,0.1c0.3,0.1,0.5,0.1,0.8,0.2
	l0.4,0.1l0.7,0.2l0.4,0.1l1.1,0.4l0.2,0.1c0.4,0.1,0.9,0.3,1.3,0.5l0.5,0.2l0.4,0.2l0.6,0.2l0.4,0.2l0.6,0.3l0.3,0.2
	c0.3,0.2,0.6,0.3,0.9,0.5l15.4,8.9c0.6,0.4,1.2,0.7,1.9,1.1c0.6,0.4,1.4,0.8,2.2,1.2l0.7,0.4c0.5,0.3,1,0.5,1.5,0.8
	c0.3,0.2,0.6,0.3,0.9,0.5l1.3,0.7l1,0.5l1.3,0.6l1,0.5l1.3,0.6c0.3,0.2,0.7,0.3,1,0.5l1.3,0.6l1,0.4l1.3,0.6l1,0.4l0.5,0.2l0.5,0.2
	c0.9,0.3,1.7,0.6,2.6,1l0.7,0.3c1.1,0.4,2.1,0.8,3.2,1.1l0.7,0.2l2.7,0.9l0.9,0.3c1.1,0.3,2.2,0.7,3.3,1l0.3,0.1
	c0.9,0.2,1.7,0.5,2.5,0.7l1,0.3l2,0.5l1.1,0.3l1.8,0.4l1.2,0.3l1.9,0.4l0.7,0.2l0.4,0.1c0.5,0.1,1.1,0.2,1.6,0.3l1.2,0.2
	c0.6,0.1,1.1,0.2,1.7,0.3l1.2,0.2l1.8,0.3l1.1,0.2l2.1,0.3l0.8,0.1h0.1l2.1,0.3l0.8,0.1c1,0.1,1.9,0.2,2.9,0.3l0.4,0l2.5,0.3l1,0.1
	l1.9,0.2h0.1l1.1,0.1l1.8,0.1l1.3,0.1l1.7,0.1l1.3,0.1l1.7,0.1l1.3,0l1.6,0.1h0.3h1h1.8h4.3h1.7h1.3l1.7,0h0.6h0.6l2-0.1l1.2-0.1
	l2.1-0.1l1.1-0.1l2.8-0.2h0.4c1-0.1,2.1-0.2,3.1-0.3h0.2l0.5-0.1c0.9-0.1,1.9-0.2,2.8-0.3l1-0.1c0.9-0.1,1.9-0.2,2.8-0.4l0.7-0.1
	c1.1-0.2,2.3-0.3,3.5-0.5l0.9-0.1l2.6-0.4l0.6-0.1c0.2,0,0.4-0.1,0.5-0.1l1.6-0.3l1.3-0.3l1.6-0.3l1.3-0.3c0.5-0.1,1.1-0.2,1.6-0.4
	l1.2-0.3l1.6-0.4l1.2-0.3l1.7-0.4l1.1-0.3c0.6-0.2,1.2-0.3,1.8-0.5l0.9-0.3c0.9-0.2,1.8-0.5,2.6-0.8h0.1c0.9-0.3,1.8-0.6,2.7-0.8
	h0.1l0.3-0.1c0.9-0.3,1.9-0.6,2.8-1l0.9-0.3c0.8-0.3,1.6-0.6,2.4-0.9l0.7-0.3c1-0.4,2-0.8,3-1.2l0.6-0.3c0.8-0.3,1.6-0.7,2.4-1
	l0.9-0.4c0.8-0.4,1.7-0.7,2.5-1.1l0.5-0.2c1-0.5,1.9-0.9,2.9-1.4l0.7-0.4c0.7-0.4,1.4-0.7,2.2-1.1l0.8-0.4c0.9-0.5,1.8-1,2.8-1.5
	c0.6-0.3,1.1-0.7,1.7-1l0.1-0.1c0.6-0.4,1.2-0.7,1.8-1.1l0.6-0.4c0.5-0.3,0.9-0.6,1.4-0.9l0.5-0.4c0.6-0.4,1.2-0.8,1.8-1.2l0.1-0.1
	c0.5-0.4,1.1-0.8,1.6-1.2l0.5-0.4l1.2-0.9l0.5-0.4c0.5-0.4,1.1-0.9,1.6-1.3l0.1-0.1l1.4-1.2l0.5-0.4c0.4-0.3,0.7-0.6,1.1-1l0.3-0.2
	l0.2-0.2l0.4-0.4l0.7-0.6l0.4-0.4l0.6-0.6l0.4-0.4l0.6-0.7c0.1-0.1,0.3-0.3,0.4-0.4c0.3-0.3,0.5-0.5,0.7-0.8
	c0.1-0.1,0.2-0.2,0.3-0.3l1-1.1l0.2-0.3l0.7-0.8c0.1-0.1,0.2-0.3,0.3-0.4c0.1-0.1,0.3-0.3,0.4-0.5c0,0,0.1-0.1,0.1-0.1
	c0.4-0.5,0.8-1,1.2-1.6l0.2-0.3c0.3-0.4,0.6-0.9,0.9-1.4c0.1-0.1,0.2-0.2,0.3-0.4c0.3-0.5,0.7-1.1,1-1.6l0.2-0.3
	c0.3-0.5,0.6-0.9,0.8-1.4c0-0.1,0.1-0.2,0.1-0.2c0,0,0.1-0.1,0.1-0.2c0.3-0.5,0.6-1,0.8-1.5l0.1-0.2c0.2-0.4,0.5-0.9,0.7-1.4
	c0.1-0.1,0.1-0.3,0.2-0.4c0.2-0.4,0.4-0.8,0.6-1.3l0.1-0.3c0.2-0.5,0.4-1,0.6-1.5l0-0.1c0.1-0.2,0.2-0.4,0.2-0.6l0.1-0.4
	c0.1-0.4,0.3-0.8,0.4-1.2l0.1-47.2C1512.2,507.1,1512.1,507.5,1511.9,507.8L1511.9,507.8z" />
	<path class="st2" d="M1324.8,612.5v1v0.7l0,0.6c0,0.2,0,0.5-0.1,0.7c0,0.2,0,0.4-0.1,0.6c0,0.2-0.1,0.4-0.1,0.7l-0.1,0.6l-0.1,0.7
	c0,0.2-0.1,0.4-0.1,0.6c0,0.2-0.1,0.4-0.1,0.7l-0.1,0.5c-0.1,0.2-0.1,0.5-0.2,0.7l-0.1,0.5c-0.1,0.2-0.1,0.5-0.2,0.7l-0.2,0.5
	c-0.1,0.2-0.2,0.5-0.3,0.7l-0.2,0.5c-0.2,0.4-0.3,0.8-0.5,1.2c0,0,0,0.1,0,0.1c-0.2,0.4-0.3,0.7-0.5,1.1l-0.2,0.4
	c-0.1,0.3-0.3,0.5-0.4,0.8l-0.3,0.5l-0.4,0.7c-0.1,0.1-0.2,0.3-0.3,0.4c-0.2,0.3-0.3,0.5-0.5,0.8c-0.1,0.2-0.2,0.3-0.3,0.5l-0.5,0.8
	l-0.3,0.5l-0.5,0.7l-0.3,0.5c-0.2,0.3-0.4,0.5-0.6,0.8l-0.3,0.4c-0.4,0.4-0.7,0.9-1.1,1.3l-0.2,0.2c-0.3,0.4-0.6,0.7-1,1.1l-0.4,0.4
	l-1,1l-0.3,0.3c-0.4,0.4-0.9,0.9-1.3,1.3l-0.5,0.5l-0.6,0.6l-0.6,0.5l-0.7,0.6l-0.6,0.5l-0.7,0.5l-0.6,0.5l-0.7,0.5
	c-0.2,0.2-0.4,0.3-0.6,0.5l-0.7,0.5l-0.7,0.5l-0.7,0.5l-0.7,0.5l-0.8,0.5l-0.7,0.5l-0.8,0.5c-0.4,0.3-0.9,0.5-1.3,0.8
	c-0.6,0.4-1.3,0.7-2,1.1l-0.6,0.3c-0.5,0.3-1,0.5-1.5,0.8l-0.5,0.3c-0.7,0.3-1.4,0.7-2.1,1l-0.4,0.2c-0.6,0.3-1.2,0.5-1.8,0.8
	l-0.6,0.3c-0.6,0.2-1.2,0.5-1.7,0.7l-0.5,0.2c-0.7,0.3-1.5,0.6-2.2,0.9l-0.5,0.2c-0.6,0.2-1.2,0.4-1.7,0.6l-0.7,0.2l-2,0.7l-0.3,0.1
	l-2,0.5c-0.6,0.2-1.3,0.4-1.9,0.6l-0.7,0.2l-1.3,0.4l-0.8,0.2l-1.2,0.3l-0.6,0.1l0.1-46.4c0-5.1-3.3-10.3-10.1-14.2l-32.2-18.3
	l-9.5-5.5c-15.1-8.7-22.6-20.2-22.6-31.6l-0.1,47.2c0,11.4,7.5,22.9,22.6,31.6l9.5,5.5l32.2,18.3c6.4,3.7,9.7,8.5,10,13.3l-0.2,0.1
	l-1.2,0.3l-0.9,0.2l-1.1,0.3l-0.9,0.2l-1.1,0.2l-0.9,0.2l-1.1,0.2c-0.3,0.1-0.5,0.1-0.8,0.1c-0.6,0.1-1.3,0.2-1.9,0.3l-0.6,0.1
	c-0.8,0.1-1.6,0.3-2.5,0.4l-0.5,0.1l-2,0.3l-0.8,0.1c-0.7,0.1-1.4,0.2-2.1,0.2l-0.5,0.1c-0.8,0.1-1.5,0.1-2.3,0.2h-0.3l-2,0.2
	l-0.8,0l-1.5,0.1c-0.3,0-0.6,0-0.9,0c-0.5,0-0.9,0-1.4,0.1h-0.9h-1.2c-0.3,0-0.6,0-1,0h-1.2h-3.1h-1.3h-0.9l-1.2,0h-1l-1.2-0.1
	l-0.9,0l-1.2-0.1l-0.9-0.1l-1.3-0.1l-0.8-0.1l-1.4-0.1l-0.7-0.1l-1.7-0.2l-0.4,0c-0.7-0.1-1.4-0.2-2.1-0.2l-0.6-0.1l-1.5-0.2
	l-0.6-0.1c-0.5-0.1-1-0.1-1.5-0.2l-0.8-0.1l-1.3-0.2l-0.9-0.2l-1.2-0.2l-0.9-0.2l-1.2-0.2l-0.9-0.2l-1.3-0.3l-0.9-0.2l-1.3-0.3
	l-0.8-0.2l-1.4-0.4c-0.2-0.1-0.5-0.1-0.7-0.2c-0.6-0.2-1.2-0.3-1.8-0.5l-0.3-0.1c-0.8-0.2-1.6-0.5-2.4-0.7l-0.6-0.2
	c-0.6-0.2-1.3-0.4-1.9-0.6c-0.2-0.1-0.3-0.1-0.5-0.2c-0.8-0.3-1.6-0.5-2.3-0.8l-0.5-0.2c-0.6-0.2-1.2-0.5-1.8-0.7l-0.6-0.2
	c-1-0.4-1.9-0.8-2.8-1.2l-0.5-0.2c-0.9-0.4-1.9-0.8-2.8-1.3l-0.4-0.2c-0.9-0.4-1.9-0.9-2.8-1.4l-0.3-0.2c-0.9-0.5-1.9-1-2.8-1.5
	l-0.1,47.2c0.9,0.5,1.9,1,2.8,1.5l0.3,0.1c0.9,0.5,1.8,0.9,2.8,1.4l0.4,0.2c0.9,0.4,1.8,0.9,2.8,1.3l0.5,0.2
	c0.9,0.4,1.9,0.8,2.8,1.2l0.2,0.1l0.4,0.1c0.6,0.2,1.2,0.5,1.8,0.7l0.5,0.2c0.8,0.3,1.5,0.6,2.3,0.8l0.5,0.2l1.9,0.6l0.6,0.2
	c0.8,0.2,1.6,0.5,2.4,0.7l0.2,0.1l1.8,0.5l0.7,0.2l1.4,0.4l0.8,0.2l1.3,0.3l0.9,0.2l1.4,0.3l0.5,0.1l0.3,0.1l1.2,0.2l0.8,0.2
	l1.2,0.2l0.9,0.2l1.3,0.2l0.8,0.1l1.5,0.2l0.6,0.1h0.1l1.5,0.2l0.6,0.1c0.7,0.1,1.4,0.2,2.1,0.2l0.4,0l1.7,0.2l0.8,0.1l1.3,0.1h0.1
	l0.8,0.1l1.3,0.1l0.9,0.1l1.2,0.1l0.9,0l1.2,0.1h1l1.2,0h0.9h1.3h3.1h1.2h1h1.2h0.5h0.5l1.4-0.1l0.9,0l1.5-0.1l0.8,0
	c0.7,0,1.3-0.1,2-0.1h0.3c0.8-0.1,1.5-0.1,2.3-0.2h0.1l0.4,0l2.1-0.2l0.8-0.1l2-0.3l0.5-0.1l2.5-0.4l0.6-0.1l1.9-0.3l0.4-0.1
	l0.4-0.1l1.1-0.2l0.9-0.2l1.1-0.2l0.9-0.2l1.1-0.2l0.9-0.2l1.2-0.3l0.9-0.2l1.2-0.3l0.8-0.2l1.3-0.4l0.7-0.2l1.9-0.6
	c0.6-0.2,1.3-0.4,1.9-0.6h0.1l0.2-0.1c0.7-0.2,1.4-0.5,2-0.7l0.7-0.2l1.7-0.6l0.5-0.2c0.7-0.3,1.5-0.6,2.2-0.9l0.5-0.2l1.7-0.7
	l0.6-0.3l1.8-0.8l0.3-0.2c0.7-0.3,1.4-0.7,2.1-1l0.5-0.3c0.5-0.3,1-0.5,1.6-0.8l0.6-0.3c0.7-0.4,1.3-0.7,2-1.1l1.1-0.6l0.2-0.1
	l0.8-0.5l0.7-0.5l0.8-0.5l0.7-0.5l0.8-0.5l0.7-0.5l0.7-0.5l0.6-0.5l0.7-0.5l0.6-0.5l0.7-0.6l0.6-0.5l0.7-0.6l0.6-0.5
	c0.2-0.2,0.4-0.4,0.6-0.6l0.5-0.4l0.1-0.1c0.5-0.4,0.9-0.8,1.3-1.3c0.1-0.1,0.2-0.2,0.3-0.3c0.3-0.3,0.6-0.7,1-1l0.4-0.4
	c0.3-0.4,0.6-0.7,1-1.1c0.1-0.1,0.1-0.2,0.2-0.3c0.4-0.4,0.7-0.9,1.1-1.3l0.1-0.1c0.1-0.1,0.2-0.2,0.2-0.3c0.2-0.3,0.4-0.5,0.6-0.8
	l0.4-0.5c0.2-0.2,0.4-0.5,0.5-0.7l0.3-0.5c0.2-0.2,0.3-0.5,0.5-0.8c0.2-0.2,0.2-0.3,0.3-0.5s0.3-0.5,0.5-0.8l0.2-0.3l0.1-0.1
	c0.1-0.2,0.3-0.5,0.4-0.7c0.1-0.2,0.2-0.3,0.3-0.5c0.1-0.2,0.3-0.5,0.4-0.8l0.2-0.4c0.2-0.4,0.3-0.7,0.5-1.1c0,0,0-0.1,0.1-0.1
	c0.2-0.4,0.3-0.8,0.5-1.2c0.1-0.1,0.1-0.3,0.2-0.4c0-0.1,0.2-0.5,0.3-0.7c0.1-0.2,0.1-0.3,0.2-0.5c0.1-0.2,0.2-0.5,0.2-0.7
	c0.1-0.2,0.1-0.4,0.1-0.5c0-0.2,0.1-0.5,0.2-0.7c0.1-0.2,0.1-0.4,0.1-0.5l0.1-0.7c0,0,0-0.1,0-0.1c0-0.1,0-0.3,0.1-0.4
	c0-0.1,0.1-0.4,0.1-0.7s0.1-0.4,0.1-0.6c0-0.2,0.1-0.4,0.1-0.7c0-0.2,0-0.4,0.1-0.6l0.1-0.7c0-0.2,0-0.4,0-0.6s0-0.4,0-0.7
	c0-0.1,0-0.1,0-0.2c0-0.3,0-0.5,0-0.8L1324.8,612.5z" />
	<path class="st5" d="M1561.2,496l-33.6,19.5l-15.3-8.8c-4.3,13.4-15.3,26.2-33,36.5c-47,27.3-123.6,27.3-170.9,0
	c-0.6-0.4-1.3-0.7-1.9-1.1l-15.4-8.9c-9.4-5.4-24.5-5.4-33.8,0c-9.3,5.4-9.2,14.2,0.1,19.6l9.5,5.4l32.2,18.3
	c34.1,19.7,34.3,51.7,0.4,71.4c-33.9,19.7-89.2,19.7-123.3,0l37.2-21.6c13.5,7.8,35.3,7.8,48.7,0c13.4-7.8,13.3-20.4-0.1-28.2
	l-32.2-18.3l-9.5-5.5c-30-17.3-30.2-45.5-0.4-62.8c14.7-8.5,33.9-12.8,53.2-13c-2.5-19.5,9.1-39.5,34.7-54.4
	c46.9-27.3,123.6-27.3,170.9,0c7.8,4.4,14.9,9.9,21.1,16.4L1561.2,496z M1345.6,521.5c26.6,15.4,69.8,15.4,96.2,0
	c26.4-15.4,26.3-40.4-0.3-55.7c-26.6-15.4-69.8-15.4-96.3,0c-26.1,15.2-26.3,39.8-0.6,55.2L1345.6,521.5" />
	<ellipse transform="matrix(0.5047 -0.8633 0.8633 0.5047 308.9439 1595.8693)" class="st6" cx="1545.2" cy="528.7" rx="4.6" ry="2.6" />
	<ellipse transform="matrix(0.1309 -0.9914 0.9914 0.1309 806.7537 2250.4724)" class="st7" cx="1686.9" cy="665.1" rx="80.4" ry="142.6" />
	<path class="st8" d="M1545.3,528.5l8,6.5v24.6l95.1,54.5" />
	<ellipse transform="matrix(0.1309 -0.9914 0.9914 0.1309 806.7537 2250.4724)" class="st9" cx="1686.9" cy="665.1" rx="90.9" ry="161.3" />
	<path class="st10" d="M1785.6,669.6c2.9,1.7,2.9,4.4,0,6l-85.7,49.4c-3.3,1.6-7.1,1.6-10.4,0l-105.4-60.8c-2.9-1.7-2.9-4.4,0-6
	l85.7-49.4c2.8-1.7,7.5-1.7,10.4,0L1785.6,669.6z" />
	<path class="st11" d="M1785.6,663.6c2.9,1.7,2.9,4.4,0,6l-85.7,49.4c-3.3,1.6-7.1,1.6-10.4,0l-105.4-60.8c-2.9-1.7-2.9-4.4,0-6
	l85.7-49.4c2.8-1.7,7.5-1.7,10.4,0L1785.6,663.6z" />
	<path class="st12" d="M1635.6,673.9l31,17.8l6.7-3.9l-31-17.8L1635.6,673.9z" />
	<path class="st12" d="M1704.1,701.1l4.5-2.6l7.8-4.6l-8.2-4.7l-7.8,4.6l-3.7-2.1l-6.7,3.9l11.9,6.8L1704.1,701.1z" />
	<path class="st12" d="M1656.6,649.5l-17.4-10l-6.7,3.9l17.4,10L1656.6,649.5z" />
	<path class="st12" d="M1640.1,659.1l-17.4-10l-6.7,3.9l17.4,10L1640.1,659.1z" />
	<path class="st12" d="M1607.7,657.9l14.9,8.6l6.7-3.9l-15-8.6L1607.7,657.9z" />
	<path class="st12" d="M1679,698.9l14.5,8.4l6.7-3.9l-14.5-8.4L1679,698.9z" />
	<path class="st12" d="M1643.9,651.8l-12.9-7.4l-6.7,3.9l12.9,7.4L1643.9,651.8z" />
	<path class="st12" d="M1623.6,667l11,6.3l6.7-3.9l-11-6.3L1623.6,667z" />
	<path class="st12" d="M1667.3,692.1l11,6.3l6.7-3.9l-11-6.3L1667.3,692.1z" />
	<path class="st12" d="M1707.4,686.5l10.9,6.3l6.7-3.9l-10.9-6.3L1707.4,686.5z" />
	<path class="st12" d="M1693.7,688.1l7.1,4.1l6.7-3.9l-7.1-4.1L1693.7,688.1z" />
	<path class="st12" d="M1663.9,672.8l-7.1-4.1l-6.7,3.9l7.1,4.1L1663.9,672.8z" />
	<path class="st12" d="M1691.4,659.9l-7.1-4l-6.7,3.9l7.1,4.1L1691.4,659.9z" />
	<path class="st12" d="M1680,682l-7.1-4.1l-6.7,3.9l7.1,4.1L1680,682z" />
	<path class="st12" d="M1706.1,677.9l-6.7,3.9l7.1,4.1l6.7-3.9L1706.1,677.9z" />
	<path class="st12" d="M1666.2,645.4l-7.1-4.1l-6.7,3.9l7,4.1L1666.2,645.4z" />
	<path class="st12" d="M1666,654.9l-6.7,3.9l7.1,4.1l6.7-3.9L1666,654.9z" />
	<path class="st12" d="M1648.2,663.7l-7.1-4.1l-6.7,3.9l7.1,4.1L1648.2,663.7z" />
	<path class="st12" d="M1698.1,673.3l-6.7,3.9l7.1,4.1l6.7-3.9L1698.1,673.3z" />
	<path class="st12" d="M1690.1,668.7l-6.7,3.9l7.1,4.1l6.7-3.9L1690.1,668.7z" />
	<path class="st12" d="M1682,664.1l-6.7,3.9l7.1,4.1l6.7-3.9L1682,664.1z" />
	<path class="st12" d="M1733.3,684l-7.1-4.1l-6.7,3.9l7.1,4.1L1733.3,684z" />
	<path class="st12" d="M1724.9,679.2l-7.1-4.1l-6.7,3.9l7.1,4.1L1724.9,679.2z" />
	<path class="st12" d="M1638.1,656.2l7.1,4.1l6.7-3.9l-7.1-4.1L1638.1,656.2z" />
	<path class="st12" d="M1669.9,674.5l7.1,4.1l6.7-3.9l-7.1-4L1669.9,674.5z" />
	<path class="st12" d="M1646.1,660.8l7.1,4.1l6.7-3.9l-7.1-4L1646.1,660.8z" />
	<path class="st12" d="M1677.8,679l7.1,4.1l6.7-3.9l-7.1-4.1L1677.8,679z" />
	<path class="st12" d="M1708.1,669.5l-7-4.1l-6.7,3.9l7.1,4L1708.1,669.5z" />
	<path class="st12" d="M1685.7,683.6l7.1,4.1l6.7-3.9l-7.1-4.1L1685.7,683.6z" />
	<path class="st12" d="M1674.6,650.2l-7.1-4.1l-6.7,3.9l7.1,4.1L1674.6,650.2z" />
	<path class="st12" d="M1654,665.3l7.1,4.1l6.7-3.9l-7.1-4.1L1654,665.3z" />
	<path class="st12" d="M1661.9,669.9l7.1,4.1l6.7-3.9l-7.1-4.1L1661.9,669.9z" />
	<path class="st12" d="M1665,654.3l-7.1-4.1l-6.7,3.9l7.1,4.1L1665,654.3z" />
	<path class="st12" d="M1716.6,674.3l-7.1-4.1l-6.7,3.9l7.1,4L1716.6,674.3z" />
	<path class="st12" d="M1687.8,686.5l-7.1-4.1l-6.7,3.9l7.1,4.1L1687.8,686.5z" />
	<path class="st12" d="M1674,659.5l-6.7,3.9l7.1,4.1l6.7-3.9L1674,659.5z" />
	<path class="st12" d="M1671.8,677.3l-7.1-4l-6.7,3.9l7.1,4.1L1671.8,677.3z" />
	<path class="st12" d="M1695.8,691.1l-7.1-4.1l-6.7,3.9l7.1,4.1L1695.8,691.1z" />
	<path class="st12" d="M1683,655l-7.1-4.1l-6.7,3.9l7.1,4L1683,655z" />
	<path class="st12" d="M1647.5,634.7l-6.7,3.9l7.1,4l6.7-3.9L1647.5,634.7z" />
	<path class="st12" d="M1699.8,664.7l-7.1-4.1l-6.7,3.9l7.1,4.1L1699.8,664.7z" />
	<path class="st12" d="M1656,668.2l-7.1-4.1l-6.7,3.9l7.1,4.1L1656,668.2z" />
	<path class="st11" d="M1755.8,676.5l-96.1-55.5c-1.6-0.9-2.8-3.3-2.8-5.4V452.9c0-2.1,1.3-3,2.8-2.1l96.1,55.5
	c1.6,0.9,2.8,3.3,2.8,5.4v162.7C1758.7,676.5,1757.4,677.4,1755.8,676.5z" />
	<g class="st13">
		<path class="st14" d="M1698.9,569l-29.2-16.9c-0.8-0.6-1.3-1.5-1.3-2.5c0-1,0.6-1.4,1.3-1l29.2,16.9c0.8,0.6,1.3,1.5,1.3,2.5
		C1700.2,569,1699.6,569.4,1698.9,569L1698.9,569z" />
		<path class="st14" d="M1719.4,580.8l-13-7.5c-0.8-0.6-1.3-1.5-1.3-2.5c0-1,0.6-1.4,1.3-1l13,7.5c0.8,0.6,1.3,1.5,1.3,2.5
		C1720.7,580.8,1720.2,581.2,1719.4,580.8z" />
		<path class="st14" d="M1746,596.2l-19.7-11.4c-0.8-0.6-1.3-1.5-1.3-2.5c0-1,0.6-1.4,1.3-1l19.7,11.4c0.8,0.6,1.3,1.5,1.3,2.5
		C1747.4,596.2,1746.8,596.6,1746,596.2z" />
		<path class="st14" d="M1687.5,572.5l-17.7-10.3c-0.8-0.6-1.3-1.5-1.3-2.6c0-1,0.6-1.4,1.3-1l17.8,10.3c0.8,0.6,1.3,1.5,1.3,2.6
		C1688.8,572.5,1688.2,573,1687.5,572.5z" />
		<path class="st14" d="M1708,584.4l-13-7.5c-0.8-0.6-1.3-1.5-1.3-2.6c0-1,0.6-1.4,1.3-1l13,7.5c0.8,0.6,1.3,1.5,1.3,2.6
		C1709.3,584.4,1708.7,584.8,1708,584.4z" />
		<path class="st14" d="M1745.6,606.1l-30.7-17.7c-0.8-0.6-1.3-1.5-1.3-2.5c0-1,0.6-1.4,1.3-1l30.7,17.7c0.8,0.6,1.3,1.5,1.3,2.6
		C1746.9,606.1,1746.3,606.5,1745.6,606.1z" />
		<path class="st14" d="M1698.9,589.3l-29.2-16.9c-0.8-0.6-1.3-1.5-1.3-2.5c0-1,0.6-1.4,1.3-1l29.2,16.9c0.8,0.6,1.3,1.5,1.3,2.5
		C1700.2,589.3,1699.6,589.7,1698.9,589.3z" />
		<path class="st14" d="M1719.4,601.1l-13-7.5c-0.8-0.6-1.3-1.5-1.3-2.5c0-1,0.6-1.4,1.3-1l13,7.5c0.8,0.6,1.3,1.5,1.3,2.6
		C1720.7,601.1,1720.2,601.6,1719.4,601.1z" />
		<path class="st14" d="M1746,616.5l-19.7-11.4c-0.8-0.6-1.3-1.5-1.3-2.6c0-1,0.6-1.4,1.3-1L1746,613c0.8,0.6,1.3,1.5,1.3,2.6
		C1747.4,616.5,1746.8,616.9,1746,616.5z" />
		<path class="st14" d="M1687.5,592.9l-17.7-10.3c-0.8-0.6-1.3-1.5-1.3-2.5c0-1,0.6-1.4,1.3-1l17.8,10.3c0.8,0.6,1.3,1.5,1.3,2.6
		C1688.8,592.8,1688.2,593.3,1687.5,592.9z" />
		<path class="st14" d="M1708,604.7l-13-7.5c-0.8-0.6-1.3-1.5-1.3-2.6c0-1,0.6-1.4,1.3-1l13,7.5c0.8,0.6,1.3,1.5,1.3,2.5
		C1709.3,604.7,1708.7,605.1,1708,604.7z" />
		<path class="st14" d="M1745.6,626.4l-30.7-17.7c-0.8-0.6-1.3-1.5-1.3-2.5c0-1,0.6-1.4,1.3-1l30.7,17.7c0.8,0.6,1.3,1.5,1.3,2.5
		C1746.9,626.4,1746.3,626.8,1745.6,626.4z" />
		<path class="st14" d="M1698.9,609.6l-29.2-16.9c-0.8-0.6-1.3-1.5-1.3-2.6c0-1,0.6-1.4,1.3-1l29.2,16.9c0.8,0.6,1.3,1.5,1.3,2.6
		C1700.2,609.6,1699.6,610,1698.9,609.6L1698.9,609.6z" />
		<path class="st14" d="M1719.4,621.5l-13-7.5c-0.8-0.6-1.3-1.5-1.3-2.5c0-1,0.6-1.4,1.3-1l13,7.5c0.8,0.6,1.3,1.5,1.3,2.6
		C1720.7,621.4,1720.2,621.9,1719.4,621.5z" />
		<path class="st14" d="M1746,636.8l-19.7-11.4c-0.8-0.6-1.3-1.5-1.3-2.5c0-1,0.6-1.4,1.3-1l19.7,11.4c0.8,0.6,1.3,1.5,1.3,2.6
		C1747.4,636.8,1746.8,637.3,1746,636.8z" />
		<path class="st14" d="M1698.9,629.7l-29.2-16.9c-0.8-0.6-1.3-1.5-1.3-2.6c0-1,0.6-1.4,1.3-1l29.2,16.9c0.8,0.6,1.3,1.5,1.3,2.6
		C1700.2,629.6,1699.6,630.1,1698.9,629.7L1698.9,629.7z" />
		<path class="st14" d="M1719.4,641.5l-13-7.5c-0.8-0.6-1.3-1.5-1.3-2.5c0-1,0.6-1.4,1.3-1l13,7.5c0.8,0.6,1.3,1.5,1.3,2.6
		C1720.7,641.5,1720.2,641.9,1719.4,641.5z" />
		<path class="st14" d="M1746,656.9l-19.7-11.4c-0.8-0.6-1.3-1.5-1.3-2.6c0-1,0.6-1.4,1.3-1l19.7,11.4c0.8,0.6,1.3,1.5,1.3,2.6
		C1747.4,656.9,1746.8,657.3,1746,656.9z" />
		<path class="st14" d="M1687.5,613.2l-17.7-10.3c-0.8-0.6-1.3-1.5-1.3-2.5c0-1,0.6-1.4,1.3-1l17.8,10.3c0.8,0.6,1.3,1.5,1.3,2.5
		C1688.8,613.1,1688.2,613.6,1687.5,613.2z" />
		<path class="st14" d="M1708,625l-13-7.5c-0.8-0.6-1.3-1.5-1.3-2.6c0-1,0.6-1.4,1.3-1l13,7.5c0.8,0.6,1.3,1.5,1.3,2.5
		C1709.3,625,1708.7,625.4,1708,625z" />
		<path class="st14" d="M1745.6,646.7l-30.7-17.7c-0.8-0.6-1.3-1.5-1.3-2.5c0-1,0.6-1.4,1.3-1l30.7,17.7c0.8,0.6,1.3,1.5,1.3,2.5
		C1746.9,646.7,1746.3,647.2,1745.6,646.7z" />
	</g>
	<path class="st15" d="M1695.5,569l-29.2-16.9c-0.8-0.6-1.3-1.5-1.3-2.5c0-1,0.6-1.4,1.3-1l29.2,16.9c0.8,0.6,1.3,1.5,1.3,2.5
	C1696.8,569,1696.2,569.4,1695.5,569z" />
	<path class="st15" d="M1716,580.8l-13-7.5c-0.8-0.6-1.3-1.5-1.3-2.5c0-1,0.6-1.4,1.3-1l13,7.5c0.8,0.6,1.3,1.5,1.3,2.5
	C1717.3,580.8,1716.8,581.2,1716,580.8z" />
	<path class="st15" d="M1742.6,596.2l-19.7-11.4c-0.8-0.6-1.3-1.5-1.3-2.6c0-1,0.6-1.4,1.3-1l19.7,11.4c0.8,0.6,1.3,1.5,1.3,2.5
	C1744,596.2,1743.4,596.6,1742.6,596.2L1742.6,596.2z" />
	<path class="st15" d="M1684.1,572.5l-17.8-10.3c-0.8-0.6-1.3-1.5-1.3-2.6c0-1,0.6-1.4,1.3-1l17.8,10.3c0.8,0.6,1.3,1.5,1.3,2.6
	C1685.4,572.5,1684.8,573,1684.1,572.5z" />
	<path class="st15" d="M1704.6,584.4l-13-7.5c-0.8-0.6-1.3-1.5-1.3-2.6c0-1,0.6-1.4,1.3-1l13,7.5c0.8,0.6,1.3,1.5,1.3,2.6
	C1705.9,584.4,1705.3,584.8,1704.6,584.4z" />
	<path class="st15" d="M1742.2,606.1l-30.7-17.7c-0.8-0.6-1.3-1.5-1.3-2.5c0-1,0.6-1.4,1.3-1l30.7,17.7c0.8,0.6,1.3,1.5,1.3,2.6
	C1743.5,606.1,1742.9,606.5,1742.2,606.1z" />
	<path class="st15" d="M1695.5,589.3l-29.2-16.9c-0.8-0.6-1.3-1.5-1.3-2.5c0-1,0.6-1.4,1.3-1l29.2,16.9c0.8,0.6,1.3,1.5,1.3,2.5
	C1696.8,589.3,1696.2,589.7,1695.5,589.3z" />
	<path class="st15" d="M1716,601.1l-13-7.5c-0.8-0.6-1.3-1.5-1.3-2.5c0-1,0.6-1.4,1.3-1l13,7.5c0.8,0.6,1.3,1.5,1.3,2.6
	C1717.3,601.1,1716.8,601.6,1716,601.1z" />
	<path class="st15" d="M1742.6,616.5l-19.7-11.4c-0.8-0.6-1.3-1.5-1.3-2.6c0-1,0.6-1.4,1.3-1l19.7,11.4c0.8,0.6,1.3,1.5,1.3,2.6
	C1744,616.5,1743.4,616.9,1742.6,616.5L1742.6,616.5z" />
	<path class="st15" d="M1684.1,592.9l-17.8-10.3c-0.8-0.6-1.3-1.5-1.3-2.5c0-1,0.6-1.4,1.3-1l17.8,10.3c0.8,0.6,1.3,1.5,1.3,2.6
	C1685.4,592.8,1684.8,593.3,1684.1,592.9z" />
	<path class="st15" d="M1704.6,604.7l-13-7.5c-0.8-0.6-1.3-1.5-1.3-2.6c0-1,0.6-1.4,1.3-1l13,7.5c0.8,0.6,1.3,1.5,1.3,2.5
	C1705.9,604.7,1705.3,605.1,1704.6,604.7z" />
	<path class="st15" d="M1742.2,626.4l-30.7-17.7c-0.8-0.6-1.3-1.5-1.3-2.5c0-1,0.6-1.4,1.3-1l30.7,17.7c0.8,0.6,1.3,1.5,1.3,2.5
	C1743.5,626.4,1742.9,626.8,1742.2,626.4z" />
	<path class="st15" d="M1695.5,609.6l-29.2-16.9c-0.8-0.6-1.3-1.5-1.3-2.6c0-1,0.6-1.4,1.3-1l29.2,16.9c0.8,0.6,1.3,1.5,1.3,2.6
	C1696.8,609.6,1696.2,610,1695.5,609.6z" />
	<path class="st15" d="M1716,621.5l-13-7.5c-0.8-0.6-1.3-1.5-1.3-2.5c0-1,0.6-1.4,1.3-1l13,7.5c0.8,0.6,1.3,1.5,1.3,2.6
	C1717.3,621.4,1716.8,621.9,1716,621.5z" />
	<path class="st15" d="M1742.6,636.8l-19.7-11.4c-0.8-0.6-1.3-1.5-1.3-2.5c0-1,0.6-1.4,1.3-1l19.7,11.4c0.8,0.6,1.3,1.5,1.3,2.6
	C1744,636.8,1743.4,637.3,1742.6,636.8L1742.6,636.8z" />
	<path class="st15" d="M1695.5,629.7l-29.2-16.9c-0.8-0.6-1.3-1.5-1.3-2.6c0-1,0.6-1.4,1.3-1l29.2,16.9c0.8,0.6,1.3,1.5,1.3,2.6
	C1696.8,629.6,1696.2,630.1,1695.5,629.7z" />
	<path class="st15" d="M1716,641.5l-13-7.5c-0.8-0.6-1.3-1.5-1.3-2.5c0-1,0.6-1.4,1.3-1l13,7.5c0.8,0.6,1.3,1.5,1.3,2.6
	C1717.3,641.5,1716.8,641.9,1716,641.5z" />
	<path class="st15" d="M1742.6,656.9l-19.7-11.4c-0.8-0.6-1.3-1.5-1.3-2.6c0-1,0.6-1.4,1.3-1l19.7,11.4c0.8,0.6,1.3,1.5,1.3,2.6
	C1744,656.9,1743.4,657.3,1742.6,656.9L1742.6,656.9z" />
	<path class="st15" d="M1684.1,613.2l-17.8-10.3c-0.8-0.6-1.3-1.5-1.3-2.5c0-1,0.6-1.4,1.3-1l17.8,10.3c0.8,0.6,1.3,1.5,1.3,2.5
	C1685.4,613.1,1684.8,613.6,1684.1,613.2z" />
	<path class="st15" d="M1704.6,625l-13-7.5c-0.8-0.6-1.3-1.5-1.3-2.6c0-1,0.6-1.4,1.3-1l13,7.5c0.8,0.6,1.3,1.5,1.3,2.5
	C1705.9,625,1705.3,625.4,1704.6,625z" />
	<path class="st15" d="M1742.2,646.7l-30.7-17.7c-0.8-0.6-1.3-1.5-1.3-2.5c0-1,0.6-1.4,1.3-1l30.7,17.7c0.8,0.6,1.3,1.5,1.3,2.5
	C1743.5,646.7,1742.9,647.2,1742.2,646.7z" />
	<g class="st13">
		<path class="st14" d="M1698.9,496.6l-29.2-16.9c-0.8-0.6-1.3-1.5-1.3-2.5c0-1,0.6-1.4,1.3-1l29.2,16.9c0.8,0.6,1.3,1.5,1.3,2.5
		C1700.2,496.6,1699.6,497,1698.9,496.6L1698.9,496.6z" />
		<path class="st14" d="M1719.4,508.4l-13-7.5c-0.8-0.6-1.3-1.5-1.3-2.6c0-1,0.6-1.4,1.3-1l13,7.5c0.8,0.6,1.3,1.5,1.3,2.5
		C1720.7,508.4,1720.2,508.8,1719.4,508.4z" />
		<path class="st14" d="M1746,523.8l-19.7-11.4c-0.8-0.6-1.3-1.5-1.3-2.5c0-1,0.6-1.4,1.3-1l19.7,11.4c0.8,0.6,1.3,1.5,1.3,2.5
		C1747.4,523.8,1746.8,524.2,1746,523.8z" />
		<path class="st14" d="M1687.5,500.1l-17.7-10.3c-0.8-0.6-1.3-1.5-1.3-2.6c0-1,0.6-1.4,1.3-1l17.8,10.3c0.8,0.6,1.3,1.5,1.3,2.6
		C1688.8,500.1,1688.2,500.6,1687.5,500.1L1687.5,500.1z" />
		<path class="st14" d="M1708,512l-13-7.5c-0.8-0.6-1.3-1.5-1.3-2.5c0-1,0.6-1.4,1.3-1l13,7.5c0.8,0.6,1.3,1.5,1.3,2.6
		C1709.3,511.9,1708.7,512.4,1708,512L1708,512z" />
		<path class="st14" d="M1745.6,533.7l-30.7-17.7c-0.8-0.6-1.3-1.5-1.3-2.6c0-1,0.6-1.4,1.3-1l30.7,17.7c0.8,0.6,1.3,1.5,1.3,2.6
		C1746.9,533.7,1746.3,534.1,1745.6,533.7L1745.6,533.7z" />
		<path class="st14" d="M1698.9,516.9l-29.2-16.9c-0.8-0.6-1.3-1.5-1.3-2.5c0-1,0.6-1.4,1.3-1l29.2,16.9c0.8,0.6,1.3,1.5,1.3,2.5
		C1700.2,516.9,1699.6,517.3,1698.9,516.9L1698.9,516.9z" />
		<path class="st14" d="M1719.4,528.7l-13-7.5c-0.8-0.6-1.3-1.5-1.3-2.5c0-1,0.6-1.4,1.3-1l13,7.5c0.8,0.6,1.3,1.5,1.3,2.6
		C1720.7,528.7,1720.2,529.2,1719.4,528.7z" />
		<path class="st14" d="M1746,544.1l-19.7-11.4c-0.8-0.6-1.3-1.5-1.3-2.6c0-1,0.6-1.4,1.3-1l19.7,11.4c0.8,0.6,1.3,1.5,1.3,2.5
		C1747.4,544.1,1746.8,544.5,1746,544.1z" />
		<path class="st14" d="M1687.5,520.5l-17.7-10.3c-0.8-0.6-1.4-1.5-1.4-2.6c0-1,0.6-1.4,1.3-1l17.8,10.3c0.8,0.6,1.3,1.5,1.3,2.6
		C1688.8,520.4,1688.2,520.9,1687.5,520.5z" />
		<path class="st14" d="M1708,532.3l-13-7.5c-0.8-0.6-1.3-1.5-1.3-2.6c0-1,0.6-1.4,1.3-1l13,7.5c0.8,0.6,1.3,1.5,1.3,2.5
		C1709.3,532.3,1708.7,532.7,1708,532.3z" />
		<path class="st14" d="M1745.6,554l-30.7-17.7c-0.8-0.6-1.3-1.5-1.3-2.5c0-1,0.6-1.4,1.3-1l30.7,17.7c0.8,0.6,1.3,1.5,1.3,2.6
		C1746.9,554,1746.3,554.4,1745.6,554z" />
		<path class="st14" d="M1698.9,537.2l-29.2-16.9c-0.8-0.6-1.3-1.5-1.3-2.5c0-1,0.6-1.4,1.3-1l29.2,16.9c0.8,0.6,1.3,1.5,1.3,2.5
		C1700.2,537.2,1699.6,537.6,1698.9,537.2L1698.9,537.2z" />
		<path class="st14" d="M1719.4,549.1l-13-7.5c-0.8-0.6-1.3-1.5-1.3-2.5c0-1,0.6-1.4,1.3-1l13,7.5c0.8,0.6,1.3,1.5,1.3,2.6
		C1720.7,549,1720.2,549.5,1719.4,549.1z" />
		<path class="st14" d="M1746,564.4l-19.7-11.4c-0.8-0.6-1.3-1.6-1.3-2.6c0-1,0.6-1.4,1.3-1l19.7,11.4c0.8,0.6,1.3,1.5,1.3,2.6
		C1747.4,564.4,1746.8,564.9,1746,564.4z" />
		<path class="st14" d="M1698.9,557.3l-29.2-16.9c-0.8-0.6-1.3-1.5-1.3-2.5c0-1,0.6-1.4,1.3-1l29.2,16.9c0.8,0.6,1.3,1.5,1.3,2.5
		C1700.2,557.3,1699.6,557.7,1698.9,557.3L1698.9,557.3z" />
		<path class="st14" d="M1719.4,569.1l-13-7.5c-0.8-0.6-1.3-1.5-1.3-2.5c0-1,0.6-1.4,1.3-1l13,7.5c0.8,0.6,1.3,1.5,1.3,2.6
		C1720.7,569.1,1720.2,569.5,1719.4,569.1z" />
		<path class="st14" d="M1746,584.5l-19.7-11.4c-0.8-0.6-1.3-1.5-1.3-2.6c0-1,0.6-1.4,1.3-1l19.7,11.3c0.8,0.6,1.3,1.5,1.3,2.6
		C1747.4,584.5,1746.8,584.9,1746,584.5L1746,584.5z" />
		<path class="st14" d="M1687.5,540.8l-17.7-10.3c-0.8-0.6-1.3-1.5-1.3-2.5c0-1,0.6-1.4,1.3-1l17.8,10.3c0.8,0.6,1.3,1.5,1.3,2.6
		C1688.8,540.7,1688.2,541.2,1687.5,540.8z" />
		<path class="st14" d="M1708,552.6l-13-7.5c-0.8-0.6-1.3-1.5-1.3-2.6c0-1,0.6-1.4,1.3-1l13,7.5c0.8,0.6,1.3,1.5,1.3,2.5
		C1709.3,552.6,1708.7,553,1708,552.6z" />
		<path class="st14" d="M1745.6,574.3l-30.7-17.7c-0.8-0.6-1.3-1.5-1.3-2.5c0-1,0.6-1.4,1.3-1l30.7,17.7c0.8,0.6,1.3,1.5,1.3,2.5
		C1746.9,574.3,1746.3,574.8,1745.6,574.3z" />
	</g>
	<path class="st15" d="M1695.5,496.6l-29.2-16.9c-0.8-0.6-1.3-1.5-1.3-2.5c0-1,0.6-1.4,1.3-1l29.2,16.9c0.8,0.6,1.3,1.5,1.3,2.5
	C1696.8,496.6,1696.2,497,1695.5,496.6z" />
	<path class="st15" d="M1716,508.4l-13-7.5c-0.8-0.6-1.3-1.5-1.3-2.6c0-1,0.6-1.4,1.3-1l13,7.5c0.8,0.6,1.3,1.5,1.3,2.5
	C1717.3,508.4,1716.8,508.8,1716,508.4z" />
	<path class="st15" d="M1742.6,523.8l-19.7-11.4c-0.8-0.6-1.3-1.5-1.3-2.5c0-1,0.6-1.4,1.3-1l19.7,11.4c0.8,0.6,1.3,1.5,1.3,2.5
	C1744,523.8,1743.4,524.2,1742.6,523.8L1742.6,523.8z" />
	<path class="st15" d="M1684.1,500.1l-17.8-10.3c-0.8-0.6-1.3-1.5-1.3-2.6c0-1,0.6-1.4,1.3-1l17.8,10.3c0.8,0.6,1.3,1.5,1.3,2.6
	C1685.4,500.1,1684.8,500.6,1684.1,500.1L1684.1,500.1z" />
	<path class="st15" d="M1704.6,512l-13-7.5c-0.8-0.6-1.3-1.5-1.3-2.5c0-1,0.6-1.4,1.3-1l13,7.5c0.8,0.6,1.3,1.5,1.3,2.6
	C1705.9,511.9,1705.3,512.4,1704.6,512L1704.6,512z" />
	<path class="st15" d="M1742.2,533.7l-30.7-17.7c-0.8-0.6-1.3-1.5-1.3-2.6c0-1,0.6-1.4,1.3-1l30.7,17.7c0.8,0.6,1.3,1.5,1.3,2.6
	C1743.5,533.7,1742.9,534.1,1742.2,533.7L1742.2,533.7z" />
	<path class="st15" d="M1695.5,516.9l-29.2-16.9c-0.8-0.6-1.3-1.5-1.3-2.5c0-1,0.6-1.4,1.3-1l29.2,16.9c0.8,0.6,1.3,1.5,1.3,2.5
	C1696.8,516.9,1696.2,517.3,1695.5,516.9z" />
	<path class="st15" d="M1716,528.7l-13-7.5c-0.8-0.6-1.3-1.5-1.3-2.5c0-1,0.6-1.4,1.3-1l13,7.5c0.8,0.6,1.3,1.5,1.3,2.6
	C1717.3,528.7,1716.8,529.2,1716,528.7z" />
	<path class="st15" d="M1742.6,544.1l-19.7-11.4c-0.8-0.6-1.3-1.5-1.3-2.6c0-1,0.6-1.4,1.3-1l19.7,11.4c0.8,0.6,1.3,1.5,1.3,2.5
	C1744,544.1,1743.4,544.5,1742.6,544.1L1742.6,544.1z" />
	<path class="st15" d="M1684.1,520.5l-17.8-10.3c-0.8-0.6-1.3-1.5-1.3-2.6c0-1,0.6-1.4,1.3-1l17.8,10.3c0.8,0.6,1.3,1.5,1.3,2.6
	C1685.4,520.4,1684.8,520.9,1684.1,520.5L1684.1,520.5z" />
	<path class="st15" d="M1704.6,532.3l-13-7.5c-0.8-0.6-1.3-1.5-1.3-2.6c0-1,0.6-1.4,1.3-1l13,7.5c0.8,0.6,1.3,1.5,1.3,2.5
	C1705.9,532.3,1705.3,532.7,1704.6,532.3z" />
	<path class="st15" d="M1742.2,554l-30.7-17.7c-0.8-0.6-1.3-1.5-1.3-2.5c0-1,0.6-1.4,1.3-1l30.7,17.7c0.8,0.6,1.3,1.5,1.3,2.6
	C1743.5,554,1742.9,554.4,1742.2,554z" />
	<path class="st15" d="M1695.5,537.2l-29.2-16.9c-0.8-0.6-1.3-1.5-1.3-2.5c0-1,0.6-1.4,1.3-1l29.2,16.9c0.8,0.6,1.3,1.5,1.3,2.5
	C1696.8,537.2,1696.2,537.6,1695.5,537.2z" />
	<path class="st15" d="M1716,549.1l-13-7.5c-0.8-0.6-1.3-1.5-1.3-2.5c0-1,0.6-1.4,1.3-1l13,7.5c0.8,0.6,1.3,1.5,1.3,2.6
	C1717.3,549,1716.8,549.5,1716,549.1z" />
	<path class="st15" d="M1742.6,564.4l-19.7-11.4c-0.8-0.6-1.3-1.5-1.3-2.6c0-1,0.6-1.4,1.3-1l19.7,11.4c0.8,0.6,1.3,1.5,1.3,2.6
	C1744,564.4,1743.4,564.9,1742.6,564.4L1742.6,564.4z" />
	<path class="st15" d="M1695.5,557.3l-29.2-16.9c-0.8-0.6-1.3-1.5-1.3-2.5c0-1,0.6-1.4,1.3-1l29.2,16.9c0.8,0.6,1.3,1.5,1.3,2.5
	C1696.8,557.3,1696.2,557.7,1695.5,557.3z" />
	<path class="st15" d="M1716,569.1l-13-7.5c-0.8-0.6-1.3-1.5-1.3-2.5c0-1,0.6-1.4,1.3-1l13,7.5c0.8,0.6,1.3,1.5,1.3,2.6
	C1717.3,569.1,1716.8,569.5,1716,569.1z" />
	<path class="st15" d="M1742.6,584.5l-19.7-11.4c-0.8-0.6-1.3-1.5-1.3-2.6c0-1,0.6-1.4,1.3-1l19.7,11.3c0.8,0.6,1.3,1.5,1.3,2.6
	C1744,584.5,1743.4,584.9,1742.6,584.5L1742.6,584.5z" />
	<path class="st15" d="M1684.1,540.8l-17.8-10.3c-0.8-0.6-1.3-1.5-1.3-2.5c0-1,0.6-1.4,1.3-1l17.8,10.3c0.8,0.6,1.3,1.5,1.3,2.6
	C1685.4,540.7,1684.8,541.2,1684.1,540.8z" />
	<path class="st15" d="M1704.6,552.6l-13-7.5c-0.8-0.6-1.3-1.5-1.3-2.6c0-1,0.6-1.4,1.3-1l13,7.5c0.8,0.6,1.3,1.5,1.3,2.5
	C1705.9,552.6,1705.3,553,1704.6,552.6z" />
	<path class="st15" d="M1742.2,574.3l-30.7-17.7c-0.8-0.6-1.3-1.5-1.3-2.5c0-1,0.6-1.4,1.3-1l30.7,17.7c0.8,0.6,1.3,1.5,1.3,2.5
	C1743.5,574.3,1742.9,574.8,1742.2,574.3z" />
	<path class="st16" d="M1656.5,460l101.8,58.4" />
	<path class="st16" d="M1767.3,576.4l22.2,12.7" />
	<ellipse transform="matrix(0.8633 -0.5047 0.5047 0.8633 -3.9034 901.9841)" class="st16" cx="1663.1" cy="458.2" rx="1.4" ry="2.4" />
	<ellipse transform="matrix(0.8645 -0.5026 0.5026 0.8645 -8.4434 899.4831)" class="st17" cx="1664.1" cy="465.4" rx="1.4" ry="2.4" />
	<ellipse transform="matrix(0.8633 -0.5047 0.5047 0.8633 -5.9915 908.6921)" class="st16" cx="1674.5" cy="465.4" rx="1.4" ry="2.4" />
	<path class="st16" d="M1766.9,578.2l-3.1-1.8v-3.5l3.1,1.8V578.2z" />
	<path class="st18" d="M1799.6,595l-7.5-4.3v-1.2l7.5,4.3V595z" />
	<path class="st18" d="M1799.6,597.2l-7.5-4.3v-1.2l7.5,4.3V597.2z" />
	<path class="st18" d="M1795.7,597.2l-3.6-2.1V594l3.6,2.1V597.2z" />
	<path class="st16" d="M1636.4,550.5l22.2,12.7" />
	<path class="st16" d="M1662.2,566.4l-3.1-1.8v-3.5l3.1,1.8V566.4z" />
	<path class="st18" d="M1633.2,549.4l-7.5-4.3v-1.2l7.5,4.3V549.4z" />
	<path class="st18" d="M1633.2,551.7l-7.5-4.3v-1.2l7.5,4.3V551.7z" />
	<path class="st18" d="M1629.2,551.7l-3.5-2.1v-1.1l3.5,2.1V551.7z" />
	<path class="st16" d="M1615.5,465.3l43.3,25.2" />
	<path class="st16" d="M1662.4,493.7l-3.1-1.8v-3.5l3.1,1.8V493.7z" />
	<path class="st18" d="M1612.2,464.2l-7.5-4.3v-1.2l7.5,4.3V464.2z" />
	<path class="st18" d="M1612.2,466.5l-7.5-4.3V461l7.5,4.3V466.5z" />
	<path class="st18" d="M1608.2,466.5l-3.5-2v-1.1l3.5,2.1V466.5z" />
	<path class="st10" d="M1185.2,481.1l-40.5-23.4l58.9-34.1l40.5,23.4L1185.2,481.1z" />
	<path class="st19" d="M1240,426l-0.1,14.4l-53.8,31.2l-37-21.4l-0.2-14.4" />
	<path class="st19" d="M1186,456.9l-37-21.4l53.8-31.2l37,21.4L1186,456.9z" />
	<path class="st19" d="M1186,453l-37-21.4l53.8-31.2l37,21.4L1186,453z" />
	<path class="st19" d="M1186,445.7l-37-21.4l53.8-31.2l37,21.4L1186,445.7z" />
	<path class="st19" d="M1186,428.8l-37-21.4l53.8-31.2l37,21.4L1186,428.8z" />
	<path class="st10" d="M1189.3,419.2l-30.1-17.4l43.8-25.4l30.1,17.4L1189.3,419.2z" />
	<path class="st19" d="M1186,405.2l-37-21.4l53.8-31.2l37,21.4L1186,405.2z" />
	<path class="st15" d="M1204.9,330.8l-4.8-2.8c-0.2-0.1-0.1-0.3,0-0.4c0.2-0.1,0.4-0.1,0.6,0l4.8,2.8c0.2,0.1,0.1,0.3,0,0.4
	C1205.4,330.9,1205.1,330.9,1204.9,330.8L1204.9,330.8z" />
	<path class="st15" d="M1218.6,344.2l-12.2-7c-0.2-0.1-0.1-0.3,0-0.4c0.2-0.1,0.4-0.1,0.6,0l12.2,7c0.2,0.1,0.1,0.3,0,0.4
	C1219.1,344.3,1218.8,344.3,1218.6,344.2L1218.6,344.2z" />
	<path class="st15" d="M1226.8,352.3l-6.6-3.8c-0.2-0.1-0.1-0.3,0-0.4c0.2-0.1,0.4-0.1,0.6,0l6.5,3.8c0.2,0.1,0.1,0.3,0,0.4
	C1227.2,352.4,1227,352.4,1226.8,352.3z" />
	<path class="st15" d="M1198,353.9l-4.8-2.8c-0.2-0.1-0.1-0.3,0-0.4c0.2-0.1,0.4-0.1,0.6,0l4.8,2.8c0.2,0.1,0.1,0.3,0,0.4
	C1198.4,354,1198.2,354,1198,353.9z" />
	<path class="st20" d="M1198,364l-4.8-2.8c-0.2-0.1-0.1-0.3,0-0.4c0.2-0.1,0.4-0.1,0.6,0l4.8,2.8c0.2,0.1,0.1,0.3,0,0.4
	C1198.4,364.1,1198.2,364.1,1198,364z" />
	<path class="st15" d="M1219.9,372l-20.4-11.8c-0.2-0.1-0.1-0.3,0-0.4c0.2-0.1,0.4-0.1,0.6,0l20.4,11.8c0.2,0.1,0.1,0.3,0,0.4
	C1220.3,372.1,1220.1,372.1,1219.9,372z" />
	<path class="st20" d="M1219.9,376.8l-20.4-11.8c-0.2-0.1-0.1-0.3,0-0.4c0.2-0.1,0.4-0.1,0.6,0l20.4,11.8c0.2,0.1,0.1,0.3,0,0.4
	C1220.3,376.9,1220.1,376.9,1219.9,376.8z" />
	<path class="st15" d="M1199.5,342.4l-2.7-1.5c-0.2-0.1-0.1-0.3,0-0.4c0.2-0.1,0.4-0.1,0.6,0l2.7,1.5c0.2,0.1,0.1,0.3,0,0.4
	C1199.9,342.5,1199.7,342.5,1199.5,342.4z" />
	<path class="st15" d="M1210.4,351.3l-9.4-5.4c-0.2-0.1-0.1-0.3,0-0.4c0.2-0.1,0.4-0.1,0.6,0l9.4,5.4c0.2,0.1,0.1,0.3,0,0.4
	C1210.8,351.4,1210.6,351.4,1210.4,351.3z" />
	<path class="st15" d="M1223.4,361.8l-11.4-6.6c-0.2-0.1-0.1-0.3,0-0.4c0.2-0.1,0.4-0.1,0.6,0l11.4,6.6c0.2,0.1,0.1,0.3,0,0.4
	C1223.9,361.9,1223.6,361.9,1223.4,361.8z" />
	<path class="st15" d="M1194.3,360.1l-4.8-2.8c-0.2-0.1-0.1-0.3,0-0.4c0.2-0.1,0.4-0.1,0.6,0l4.8,2.8c0.2,0.1,0.1,0.3,0,0.4
	C1194.7,360.2,1194.5,360.2,1194.3,360.1L1194.3,360.1z" />
	<path class="st20" d="M1194.3,367l-4.8-2.8c-0.2-0.1-0.1-0.3,0-0.4c0.2-0.1,0.4-0.1,0.6,0l4.8,2.8c0.2,0.1,0.1,0.3,0,0.4
	C1194.7,367.1,1194.5,367.1,1194.3,367L1194.3,367z" />
	<path class="st15" d="M1208,373l-12.2-7c-0.2-0.1-0.1-0.3,0-0.4c0.2-0.1,0.4-0.1,0.6,0l12.2,7c0.2,0.1,0.1,0.3,0,0.4
	C1208.5,373.1,1208.2,373.1,1208,373z" />
	<path class="st21" d="M1208,375l-12.2-7c-0.2-0.1-0.1-0.3,0-0.4c0.2-0.1,0.4-0.1,0.6,0l12.2,7c0.2,0.1,0.1,0.3,0,0.4
	C1208.5,375.1,1208.2,375.1,1208,375z" />
	<path class="st15" d="M1216.2,380.1l-6.6-3.8c-0.2-0.1-0.1-0.3,0-0.4c0.2-0.1,0.4-0.1,0.6,0l6.6,3.8c0.2,0.1,0.1,0.3,0,0.4
	C1216.6,380.2,1216.4,380.2,1216.2,380.1z" />
	<path class="st15" d="M1187.3,372l-4.8-2.8c-0.2-0.1-0.1-0.3,0-0.4c0.2-0.1,0.4-0.1,0.6,0l4.8,2.8c0.2,0.1,0.1,0.3,0,0.4
	C1187.8,372.1,1187.5,372.1,1187.3,372z" />
	<path class="st15" d="M1209.3,384.7l-20.4-11.8c-0.2-0.1-0.1-0.3,0-0.4c0.2-0.1,0.4-0.1,0.6,0l20.4,11.8c0.2,0.1,0.1,0.3,0,0.4
	C1209.7,384.8,1209.5,384.8,1209.3,384.7z" />
	<path class="st15" d="M1188.8,368.7l-2.7-1.5c-0.2-0.1-0.1-0.3,0-0.4c0.2-0.1,0.4-0.1,0.6,0l2.7,1.5c0.2,0.1,0.1,0.3,0,0.4
	C1189.3,368.8,1189,368.8,1188.8,368.7z" />
	<path class="st15" d="M1199.8,375l-9.4-5.4c-0.2-0.1-0.1-0.3,0-0.4c0.2-0.1,0.4-0.1,0.6,0l9.4,5.4c0.2,0.1,0.1,0.3,0,0.4
	C1200.2,375.2,1200,375.2,1199.8,375L1199.8,375z" />
	<path class="st15" d="M1212.8,382.6l-11.4-6.6c-0.2-0.1-0.1-0.3,0-0.4c0.2-0.1,0.4-0.1,0.6,0l11.4,6.6c0.2,0.1,0.1,0.3,0,0.4
	C1213.2,382.7,1213,382.7,1212.8,382.6L1212.8,382.6z" />
	<path class="st15" d="M1183.7,374.1l-4.8-2.8c-0.2-0.1-0.1-0.3,0-0.4c0.2-0.1,0.4-0.1,0.6,0l4.8,2.8c0.2,0.1,0.1,0.3,0,0.4
	C1184.1,374.3,1183.9,374.3,1183.7,374.1z" />
	<path class="st15" d="M1197.4,382.1l-12.2-7c-0.2-0.1-0.1-0.3,0-0.4c0.2-0.1,0.4-0.1,0.6,0l12.2,7c0.2,0.1,0.1,0.3,0,0.4
	C1197.8,382.2,1197.6,382.2,1197.4,382.1z" />
	<path class="st15" d="M1205.5,386.8l-6.5-3.8c-0.2-0.1-0.1-0.3,0-0.4c0.2-0.1,0.4-0.1,0.6,0l6.6,3.8c0.2,0.1,0.1,0.3,0,0.4
	C1206,386.9,1205.7,386.9,1205.5,386.8z" />
	<path class="st15" d="M1176.7,378.2l-4.8-2.8c-0.2-0.1-0.1-0.3,0-0.4c0.2-0.1,0.4-0.1,0.6,0l4.8,2.8c0.2,0.1,0.1,0.3,0,0.4
	C1177.2,378.3,1176.9,378.3,1176.7,378.2L1176.7,378.2z" />
	<path class="st15" d="M1198.7,390.8l-20.4-11.8c-0.2-0.1-0.1-0.3,0-0.4c0.2-0.1,0.4-0.1,0.6,0l20.4,11.8c0.2,0.1,0.1,0.3,0,0.4
	C1199.1,390.9,1198.9,390.9,1198.7,390.8z" />
	<path class="st15" d="M1178.2,374.9l-2.7-1.5c-0.2-0.1-0.1-0.3,0-0.4c0.2-0.1,0.4-0.1,0.6,0l2.7,1.5c0.2,0.1,0.1,0.3,0,0.4
	C1178.7,375,1178.4,375,1178.2,374.9z" />
	<path class="st15" d="M1189.1,381.2l-9.4-5.4c-0.2-0.1-0.1-0.3,0-0.4c0.2-0.1,0.4-0.1,0.6,0l9.4,5.4c0.2,0.1,0.1,0.3,0,0.4
	C1189.6,381.3,1189.3,381.3,1189.1,381.2z" />
	<path class="st15" d="M1202.2,388.7l-11.4-6.6c-0.2-0.1-0.1-0.3,0-0.4c0.2-0.1,0.4-0.1,0.6,0l11.4,6.6c0.2,0.1,0.1,0.3,0,0.4
	C1202.6,388.8,1202.4,388.8,1202.2,388.7z" />
	<path class="st15" d="M1173.1,380.3l-4.8-2.8c-0.2-0.1-0.1-0.3,0-0.4c0.2-0.1,0.4-0.1,0.6,0l4.8,2.8c0.2,0.1,0.1,0.3,0,0.4
	C1173.5,380.4,1173.3,380.4,1173.1,380.3z" />
	<path class="st15" d="M1186.8,388.2l-12.2-7c-0.2-0.1-0.1-0.3,0-0.4c0.2-0.1,0.4-0.1,0.6,0l12.2,7c0.2,0.1,0.1,0.3,0,0.4
	C1187.2,388.3,1187,388.3,1186.8,388.2z" />
	<path class="st15" d="M1194.9,392.9l-6.6-3.8c-0.2-0.1-0.1-0.3,0-0.4c0.2-0.1,0.4-0.1,0.6,0l6.6,3.8c0.2,0.1,0.1,0.3,0,0.4
	C1195.4,393,1195.1,393,1194.9,392.9z" />
	<path class="st15" d="M1166.1,384.3l-4.8-2.8c-0.2-0.1-0.1-0.3,0-0.4c0.2-0.1,0.4-0.1,0.6,0l4.8,2.8c0.2,0.1,0.1,0.3,0,0.4
	C1166.5,384.4,1166.3,384.4,1166.1,384.3L1166.1,384.3z" />
	<path class="st15" d="M1188,397l-20.4-11.8c-0.2-0.1-0.1-0.3,0-0.4c0.2-0.1,0.4-0.1,0.6,0l20.4,11.8c0.2,0.1,0.1,0.3,0,0.4
	C1188.5,397.1,1188.2,397.1,1188,397z" />
	<path class="st15" d="M1167.6,381l-2.7-1.5c-0.2-0.1-0.1-0.3,0-0.4c0.2-0.1,0.4-0.1,0.6,0l2.7,1.5c0.2,0.1,0.1,0.3,0,0.4
	C1168,381.1,1167.8,381.1,1167.6,381z" />
	<path class="st15" d="M1178.5,387.3l-9.4-5.4c-0.2-0.1-0.1-0.3,0-0.4c0.2-0.1,0.4-0.1,0.6,0l9.4,5.4c0.2,0.1,0.1,0.3,0,0.4
	C1178.9,387.5,1178.7,387.5,1178.5,387.3z" />
	<path class="st15" d="M1191.5,394.9l-11.4-6.6c-0.2-0.1-0.1-0.3,0-0.4c0.2-0.1,0.4-0.1,0.6,0l11.4,6.6c0.2,0.1,0.1,0.3,0,0.4
	C1192,395,1191.7,395,1191.5,394.9z" />
	<ellipse transform="matrix(5.410490e-03 -1 1 5.410490e-03 806.9208 1526.1648)" class="st19" cx="1170.7" cy="357.4" rx="2.7" ry="4.7" />
	<ellipse transform="matrix(5.410490e-03 -1 1 5.410490e-03 386.8051 1769.5267)" class="st19" cx="1083" cy="690.3" rx="2.4" ry="4.1" />
	<path class="st22" d="M1167.1,355.8l-28.7-16" />
	<path class="st18" d="M1131.9,334.7l-2.9,1.7l-0.7-0.4c-0.7-0.3-1.6-0.3-2.3,0.1l-4.1,2.4l1.8,1l-1.7,1l5,2.9l1.7-1l1.8,1l4.1-2.4
	c0.7-0.4,0.8-1,0.2-1.3l-0.7-0.4l2.9-1.7L1131.9,334.7z M1131.7,335.6l3.6,2.1l-2.1,1.2l-3.6-2.1L1131.7,335.6z M1127.4,336.4
	l6.5,3.7c0.2,0.1,0.2,0.3-0.1,0.4l-3.3,1.9l-1.1-0.6l1.7-1l-5-2.9l-1.7,0.9l-1.1-0.6l3.3-1.9
	C1126.9,336.3,1127.2,336.3,1127.4,336.4L1127.4,336.4z M1127.3,336.9c-0.2-0.1-0.5-0.1-0.8,0c-0.2,0.1-0.3,0.3-0.1,0.4
	c0.2,0.1,0.5,0.1,0.8,0C1127.5,337.2,1127.5,337,1127.3,336.9L1127.3,336.9z M1126,338.9l3.6,2.1l-2.5,1.4l-3.6-2.1L1126,338.9z" />
	<path class="st23" d="M1173.2,464.4l-47.1,27.9l72.4,41.3" />
	<path class="st23" d="M1069.2,651.3l41-23.5l66.1,37.5" />
	<ellipse transform="matrix(0.1438 -0.9896 0.9896 0.1438 478.2223 1537.2206)" class="st24" cx="1127.5" cy="492.2" rx="2.9" ry="5.3" />
	<ellipse transform="matrix(0.1438 -0.9896 0.9896 0.1438 478.2223 1537.2206)" class="st25" cx="1127.5" cy="492.2" rx="12.1" ry="21.8" />
	<ellipse transform="matrix(0.1438 -0.9896 0.9896 0.1438 329.5627 1636.6185)" class="st24" cx="1110.6" cy="627.8" rx="2.9" ry="5.3" />
	<ellipse transform="matrix(0.1438 -0.9896 0.9896 0.1438 329.5627 1636.6185)" class="st25" cx="1110.6" cy="627.8" rx="12.1" ry="21.8" />
	<path class="st19" d="M1036.6,512.4l-76.1,44c-2.1,1.2-3.8-0.1-3.8-2.9V502c0-2.8,1.7-6.1,3.8-7.3l76.2-44c2.1-1.2,3.8,0.1,3.8,2.9
	v51.5C1040.4,507.9,1038.7,511.2,1036.6,512.4z" />
	<path class="st19" d="M1048.4,519.7l-76.2,44c-2.1,1.2-3.8-0.1-3.8-2.9v-51.5c0-2.8,1.7-6.1,3.8-7.3l76.2-44
	c2.1-1.2,3.8,0.1,3.8,2.9v51.5C1052.2,515.2,1050.5,518.4,1048.4,519.7L1048.4,519.7z" />
	<path class="st19" d="M1060.2,526.4l-76.2,44c-2.1,1.2-3.8-0.1-3.8-2.9v-51.5c0-2.8,1.7-6.1,3.8-7.3l76.2-44
	c2.1-1.2,3.8,0.1,3.8,2.9v51.5C1064,521.9,1062.3,525.2,1060.2,526.4L1060.2,526.4z" />
	<path class="st19" d="M1072.1,533.6l-76.2,44c-2.1,1.2-3.8-0.1-3.8-2.9v-51.5c0-2.8,1.7-6.1,3.8-7.3l76.2-44
	c2.1-1.2,3.8,0.1,3.8,2.9v51.5C1075.9,529.1,1074.2,532.4,1072.1,533.6L1072.1,533.6z" />
	<path class="st16" d="M952.5,582.5l39.6-23.4" />
	<path class="st11" d="M956.2,584.1l-7.6,4.4v-7.7l7.6-4.4V584.1z" />
	<path class="st11" d="M952.8,588l-8.6,4.9v-12l8.6-4.9V588z" />
	<path class="st18" d="M955.2,579.3l-2.2,1.2v-0.6l2.2-1.2V579.3z" />
	<path class="st18" d="M955.2,581.1l-2.2,1.2v-0.6l2.2-1.2V581.1z" />
	<path class="st18" d="M955.2,582.9l-2.2,1.2v-0.6l2.2-1.2V582.9z" />
	<path class="st16" d="M940.4,564.6l39.6-23.4" />
	<path class="st11" d="M944.1,566.2l-7.6,4.4v-7.7l7.6-4.4V566.2z" />
	<path class="st11" d="M940.7,570.1l-8.6,4.9v-12l8.6-4.9V570.1z" />
	<path class="st18" d="M943.1,561.4l-2.2,1.2V562l2.2-1.2V561.4z" />
	<path class="st18" d="M943.1,563.2l-2.2,1.2v-0.6l2.2-1.2V563.2z" />
	<path class="st18" d="M943.1,565l-2.2,1.2v-0.6l2.2-1.2V565z" />
	<path class="st16" d="M928.6,550.3l39.6-23.4" />
	<path class="st11" d="M932.2,551.8l-7.6,4.4v-7.7l7.6-4.4V551.8z" />
	<path class="st11" d="M928.9,555.8l-8.6,4.9v-12l8.6-4.9V555.8z" />
	<path class="st18" d="M931.3,547.1l-2.2,1.2v-0.6l2.2-1.2V547.1z" />
	<path class="st18" d="M931.3,548.9l-2.2,1.2v-0.6l2.2-1.2V548.9z" />
	<path class="st18" d="M931.3,550.6l-2.2,1.2v-0.6l2.2-1.2V550.6z" />
	<path class="st16" d="M917,534.2l39.6-23.4" />
	<path class="st11" d="M920.7,535.8l-7.6,4.4v-7.7l7.6-4.4V535.8z" />
	<path class="st11" d="M917.3,539.7l-8.6,4.9v-12l8.6-4.9V539.7z" />
	<path class="st18" d="M919.7,531l-2.2,1.2v-0.6l2.2-1.2V531z" />
	<path class="st18" d="M919.7,532.8l-2.2,1.2v-0.6l2.2-1.2V532.8z" />
	<path class="st18" d="M919.7,534.6l-2.2,1.2v-0.6l2.2-1.2V534.6z" />
	<path class="st22" d="M992,525.9l83.9-48.4" />
	<path class="st26" d="M1069.3,479l-1.9,1.1v-1.8l1.9-1.1V479z" />
	<path class="st18" d="M1072.5,477.3l-1.5-0.9l0.3-0.5l1.5,0.9L1072.5,477.3z" />
	<path class="st18" d="M1072.8,475.4l-1.5,2.6l-0.3-0.2l1.5-2.6L1072.8,475.4z" />
	<path class="st18" d="M1065.8,481l-1.8,1.1v-0.6l1.8-1.1V481z" />
	<path class="st22" d="M980.2,518.3l83.9-48.4" />
	<path class="st26" d="M1057.4,471.4l-1.9,1.1v-1.8l1.9-1.1V471.4z" />
	<path class="st18" d="M1060.7,469.7l-1.5-0.9l0.3-0.5l1.5,0.9L1060.7,469.7z" />
	<path class="st18" d="M1061,467.8l-1.5,2.6l-0.3-0.2l1.5-2.6L1061,467.8z" />
	<path class="st18" d="M1054,473.4l-1.8,1.1v-0.6l1.8-1.1V473.4z" />
	<path class="st22" d="M968.5,511.7l83.9-48.4" />
	<path class="st26" d="M1045.7,464.8l-1.9,1.1v-1.8l1.9-1.1V464.8z" />
	<path class="st18" d="M1048.9,463.2l-1.5-0.9l0.3-0.5l1.5,0.9L1048.9,463.2z" />
	<path class="st18" d="M1049.2,461.2l-1.5,2.6l-0.3-0.2l1.5-2.6L1049.2,461.2z" />
	<path class="st18" d="M1042.2,466.8l-1.8,1.1v-0.5l1.8-1.1V466.8z" />
	<path class="st22" d="M956.5,504.4l83.9-48.4" />
	<path class="st26" d="M1033.7,457.5l-1.9,1.1v-1.8l1.9-1.1V457.5z" />
	<path class="st18" d="M1036.9,455.8l-1.5-0.9l0.3-0.5l1.5,0.9L1036.9,455.8z" />
	<path class="st18" d="M1037.2,453.9l-1.5,2.6l-0.3-0.2l1.5-2.6L1037.2,453.9z" />
	<path class="st18" d="M1030.2,459.4l-1.8,1.1v-0.6l1.8-1.1V459.4z" />
	<g>
		<path class="st15" d="M1004.6,530.4l-5.6,3.2v-6.4l5.6-3.2V530.4z" />
		<path class="st15" d="M1003.9,532.9l-4.1,2.4c-0.2,0.1-0.4,0-0.4-0.3c0-0.3,0.1-0.5,0.4-0.7l4.1-2.4c0.2-0.1,0.4,0,0.4,0.3
		C1004.2,532.5,1004.1,532.7,1003.9,532.9L1003.9,532.9z" />
		<path class="st15" d="M1012.1,526.1l-5.6,3.2v-6.4l5.6-3.2V526.1z" />
		<path class="st15" d="M1011.4,528.6l-4.1,2.4c-0.2,0.1-0.4,0-0.4-0.3c0-0.3,0.1-0.5,0.4-0.7l4.1-2.4c0.2-0.1,0.4,0,0.4,0.3
		C1011.7,528.1,1011.6,528.4,1011.4,528.6z" />
		<path class="st15" d="M1019.5,521.8l-5.6,3.2v-6.4l5.6-3.2V521.8z" />
		<path class="st15" d="M1027.1,513.8l-5.6,3.2v-2.8l5.6-3.2V513.8z" />
		<path class="st15" d="M1027.1,517.2l-5.6,3.2v-2.8l5.6-3.2V517.2z" />
		<path class="st15" d="M1056.4,496.8l-11.5,6.7v-2.8l11.5-6.7V496.8z" />
		<path class="st15" d="M1056.4,500.3l-11.5,6.7v-2.8l11.5-6.7V500.3z" />
		<path class="st15" d="M1033.3,510.2l-5.6,3.2v-2.8l5.6-3.2V510.2z" />
		<path class="st15" d="M1037.5,507.8l-2.3,1.3v-2.8l2.3-1.3V507.8z" />
		<path class="st15" d="M1040.4,506.1l-2.3,1.3v-2.8l2.3-1.3V506.1z" />
		<path class="st15" d="M1043.3,504.4l-2.3,1.3V503l2.3-1.3V504.4z" />
		<path class="st15" d="M1037.5,511.2l-2.3,1.3v-2.8l2.3-1.3V511.2z" />
		<path class="st15" d="M1040.4,509.5l-2.3,1.3v-2.8l2.3-1.3V509.5z" />
		<path class="st15" d="M1043.3,507.9l-2.3,1.3v-2.8l2.3-1.3V507.9z" />
		<path class="st15" d="M1060.2,493.6l-1.4,0.8v-1.7l1.4-0.8V493.6z" />
		<path class="st15" d="M1061.9,492.6l-1.4,0.8v-1.7l1.4-0.8V492.6z" />
		<path class="st15" d="M1063.8,491.5l-1.4,0.8v-1.7l1.4-0.8V491.5z" />
		<path class="st15" d="M1060.2,495.8l-1.4,0.8v-1.7l1.4-0.8V495.8z" />
		<path class="st15" d="M1061.9,494.7l-1.4,0.8v-1.7l1.4-0.8V494.7z" />
		<path class="st15" d="M1063.8,493.7l-1.4,0.8v-1.7l1.4-0.8V493.7z" />
		<path class="st15" d="M1065.6,490.5l-1.4,0.8v-1.7l1.4-0.8V490.5z" />
		<path class="st15" d="M1067.4,489.4l-1.4,0.8v-1.7l1.4-0.8V489.4z" />
		<path class="st15" d="M1069.2,488.4l-1.4,0.8v-1.7l1.4-0.8V488.4z" />
		<path class="st15" d="M1065.6,492.6l-1.4,0.8v-1.7l1.4-0.8V492.6z" />
		<path class="st15" d="M1067.4,491.6l-1.4,0.8v-1.7l1.4-0.8V491.6z" />
		<path class="st15" d="M1069.2,490.5l-1.4,0.8v-1.7l1.4-0.8V490.5z" />
		<path class="st15" d="M1060.2,497.9l-1.4,0.8V497l1.4-0.8V497.9z" />
		<path class="st15" d="M1061.9,496.8l-1.4,0.8v-1.7l1.4-0.8V496.8z" />
		<path class="st15" d="M1063.8,495.8l-1.4,0.8v-1.7l1.4-0.8V495.8z" />
		<path class="st15" d="M1060.2,500l-1.4,0.8v-1.7l1.4-0.8V500z" />
		<path class="st15" d="M1061.9,499l-1.4,0.8v-1.7l1.4-0.8V499z" />
		<path class="st15" d="M1063.8,497.9l-1.4,0.8V497l1.4-0.8V497.9z" />
		<path class="st15" d="M1065.6,494.7l-1.4,0.8v-1.7l1.4-0.8V494.7z" />
		<path class="st15" d="M1067.4,493.7l-1.4,0.8v-1.7l1.4-0.8V493.7z" />
		<path class="st15" d="M1069.2,492.6l-1.4,0.8v-1.7l1.4-0.8V492.6z" />
		<path class="st15" d="M1065.6,496.9l-1.4,0.8V496l1.4-0.8V496.9z" />
		<path class="st15" d="M1067.4,495.8l-1.4,0.8v-1.7l1.4-0.8V495.8z" />
		<path class="st15" d="M1069.2,494.8l-1.4,0.8v-1.7l1.4-0.8V494.8z" />
		<path class="st15" d="M1037.5,513.3l-2.3,1.3v-1.5l2.3-1.3V513.3z" />
		<path class="st15" d="M1040.4,511.7l-2.3,1.3v-1.5l2.3-1.3V511.7z" />
		<path class="st15" d="M1043.3,510l-2.3,1.3v-1.5l2.3-1.3V510z" />
		<path class="st15" d="M1033.3,513.6l-5.6,3.2v-2.8l5.6-3.2V513.6z" />
		<path class="st15" d="M1018.8,524.2l-4.1,2.4c-0.2,0.1-0.4,0-0.4-0.3c0-0.3,0.1-0.5,0.4-0.7l4.1-2.4c0.2-0.1,0.4,0,0.4,0.3
		C1019.2,523.8,1019.1,524.1,1018.8,524.2z" />
		<path class="st15" d="M1032.9,516.2l-11,6.3c-0.2,0.1-0.4,0-0.4-0.3c0-0.3,0.1-0.6,0.4-0.7l11-6.3c0.2-0.1,0.4,0,0.4,0.3
		C1033.3,515.7,1033.1,516,1032.9,516.2L1032.9,516.2z" />
		<path class="st15" d="M1056.2,502.7l-11,6.3c-0.2,0.1-0.4,0-0.4-0.3c0-0.3,0.1-0.6,0.4-0.7l11-6.3c0.2-0.1,0.4,0,0.4,0.3
		C1056.6,502.2,1056.5,502.5,1056.2,502.7z" />
	</g>
	<path class="st27" d="M995.9,577.6l76.2-44c0.3-0.2,0.5-0.3,0.8-0.6l-77.6,44.8C995.5,577.8,995.7,577.7,995.9,577.6L995.9,577.6z" />
	<path class="st22" d="M1072.1,533.6l-76.2,44c-2.1,1.2-3.8-0.1-3.8-2.9v-51.5c0-2.8,1.7-6.1,3.8-7.3l76.2-44
	c2.1-1.2,3.8,0.1,3.8,2.9v51.5C1075.9,529.1,1074.2,532.4,1072.1,533.6L1072.1,533.6z" />
	<path class="st19" d="M1070.2,534.7l-70.3,40.6v-34.5l70.3-40.6V534.7z" />
	<path class="st28" d="M1025.7,536.2l-14.4,8.3c-0.5,0.3-0.9,0-0.9-0.7c0-0.7,0.4-1.4,0.9-1.8l14.4-8.3c0.5-0.3,0.9,0,0.9,0.7
	C1026.7,535.2,1026.3,535.8,1025.7,536.2z" />
	<path class="st28" d="M1049.1,527l-38.1,22c-0.3,0.2-0.6,0-0.6-0.5c0-0.5,0.2-0.9,0.6-1.2l38.1-22c0.3-0.2,0.6,0,0.6,0.5
	C1049.7,526.3,1049.5,526.8,1049.1,527z" />
	<path class="st28" d="M1044.7,532.9l-33.7,19.5c-0.3,0.2-0.6,0-0.6-0.5c0-0.5,0.2-0.9,0.6-1.2l33.7-19.5c0.3-0.2,0.6,0,0.6,0.5
	C1045.3,532.2,1045.1,532.6,1044.7,532.9z" />
	<path class="st28" d="M1046.7,535.1l-35.7,20.6c-0.3,0.2-0.6,0-0.6-0.5c0-0.5,0.2-0.9,0.6-1.2l35.7-20.6c0.3-0.2,0.6,0,0.6,0.5
	C1047.3,534.4,1047.1,534.8,1046.7,535.1z" />
	<path class="st28" d="M1049.1,537.1l-38.1,22c-0.3,0.2-0.6,0-0.6-0.5c0-0.5,0.2-0.9,0.6-1.2l38.1-22c0.3-0.2,0.6,0,0.6,0.5
	C1049.7,536.4,1049.5,536.8,1049.1,537.1z" />
	<path class="st28" d="M1044.7,542.9l-33.7,19.5c-0.3,0.2-0.6,0-0.6-0.5c0-0.5,0.2-0.9,0.6-1.2l33.7-19.5c0.3-0.2,0.6,0,0.6,0.5
	C1045.3,542.2,1045.1,542.7,1044.7,542.9z" />
	<path class="st28" d="M1046.7,545.2l-35.7,20.6c-0.3,0.2-0.6,0-0.6-0.5c0-0.5,0.2-0.9,0.6-1.2l35.7-20.6c0.3-0.2,0.6,0,0.6,0.5
	C1047.3,544.5,1047.1,544.9,1046.7,545.2z" />
	<path class="st18" d="M914.6,535.6c-0.3,0.4-0.7,0.8-1.1,1l-0.9,0.5v1.8l-0.9,0.5v-5l1.9-1.1c0.3-0.2,0.7-0.3,1-0.2
	c0.3,0.1,0.4,0.4,0.4,1C915,534.6,914.9,535.1,914.6,535.6L914.6,535.6z M913.9,534.2c-0.2,0-0.4,0-0.5,0.1l-0.8,0.5v1.5l0.8-0.5
	c0.2-0.1,0.4-0.3,0.5-0.5c0.1-0.2,0.2-0.4,0.2-0.7C914.1,534.4,914,534.2,913.9,534.2L913.9,534.2z" />
	<path class="st18" d="M926.2,553.5c-0.3,0.6-0.8,1.1-1.4,1.4c-0.6,0.4-1.1,0.4-1.4,0.2c-0.4-0.2-0.7-0.8-0.7-1.7
	c0-0.9,0.2-1.7,0.7-2.5c0.3-0.6,0.8-1.1,1.4-1.4c0.6-0.4,1.1-0.4,1.4-0.2c0.5,0.2,0.7,0.8,0.7,1.7
	C926.9,551.9,926.6,552.7,926.2,553.5z M925.6,553c0.2-0.5,0.3-1,0.3-1.5c0.1-0.4-0.1-0.8-0.3-1.1c-0.2-0.2-0.5-0.2-0.9,0
	c-0.4,0.2-0.7,0.6-0.9,1c-0.2,0.5-0.3,1-0.3,1.5c-0.1,0.4,0.1,0.8,0.3,1.1c0.2,0.2,0.5,0.2,0.9,0C925.1,553.8,925.4,553.4,925.6,553
	z" />
	<path class="st18" d="M935.7,569.9l-1.1,0.6l1.4-3.4l-1.3-1.7l1.1-0.6l0.8,1.2l0.8-2.1l1.1-0.6l-1.3,3.2l1.4,1.8l-1.1,0.6l-0.8-1.2
	L935.7,569.9z" />
	<path class="st18" d="M947,583.5l0.6,2.6l0.1,0.7l0.1-0.9l0.5-3.2l1-0.6l0.5,2.6l0.1,0.7l0.1-0.9l0.6-3.3l0.9-0.5l-1.2,5.8l-0.9,0.5
	l-0.5-2.6l-0.2-0.9l-0.2,1.1l-0.5,3.3l-0.9,0.5L946,584L947,583.5z" />
	<path class="st23" d="M1123,493.5l-47.1,26.9" />
	<g class="st13">
		<path class="st14" d="M1099,673.4l-24.1-13.9c-0.6-0.3-1.3-0.3-1.9,0.1l-15.9,9.2c-0.6,0.3-0.6,0.8-0.1,1.1l24.1,13.9
		c0.6,0.3,1.3,0.2,1.9-0.1l15.9-9.2C1099.5,674.2,1099.5,673.7,1099,673.4z" />
		<path class="st14" d="M1028.6,653.3l24.1,13.9c0.6,0.3,1.3,0.2,1.9-0.1l15.9-9.2c0.6-0.3,0.6-0.8,0.1-1.1l-24.1-13.9
		c-0.6-0.3-1.3-0.3-1.9,0.1l-15.9,9.2C1028.1,652.5,1028.1,653,1028.6,653.3L1028.6,653.3z" />
		<path class="st14" d="M1000.1,636.6l24.1,13.9c0.6,0.3,1.3,0.3,1.9-0.1l15.9-9.2c0.6-0.3,0.6-0.8,0.1-1.1l-24.1-13.9
		c-0.6-0.3-1.3-0.2-1.9,0.1l-15.9,9.2C999.7,635.9,999.6,636.4,1000.1,636.6z" />
		<path class="st14" d="M1078.4,685.3l-24.1-13.9c-0.6-0.3-1.3-0.2-1.9,0.1l-15.9,9.2c-0.6,0.3-0.6,0.8-0.1,1.1l24.1,13.9
		c0.6,0.3,1.3,0.2,1.9-0.1l15.9-9.2C1078.8,686.1,1078.8,685.5,1078.4,685.3L1078.4,685.3z" />
		<path class="st14" d="M1025.8,654.8c-0.6-0.3-1.3-0.3-1.9,0.1L1008,664c-0.6,0.3-0.6,0.8-0.1,1.1l24.1,13.9
		c0.6,0.3,1.3,0.3,1.9-0.1l15.9-9.2c0.6-0.3,0.6-0.8,0.1-1.1L1025.8,654.8z" />
		<path class="st14" d="M979.4,648.5l24.1,13.9c0.6,0.3,1.3,0.3,1.9-0.1l15.9-9.2c0.6-0.3,0.6-0.8,0.1-1.1l-24.1-13.9
		c-0.6-0.3-1.3-0.2-1.9,0.1l-15.9,9.2C979,647.7,978.9,648.2,979.4,648.5L979.4,648.5z" />
		<path class="st14" d="M1057.7,697.1l-24.1-13.9c-0.6-0.3-1.3-0.3-1.9,0.1l-15.9,9.2c-0.6,0.3-0.6,0.8-0.1,1.1l24.1,13.9
		c0.6,0.3,1.3,0.2,1.9-0.1l15.9-9.2C1058.1,697.9,1058.2,697.4,1057.7,697.1L1057.7,697.1z" />
		<path class="st14" d="M1029.2,680.5l-24.1-13.9c-0.6-0.3-1.3-0.2-1.9,0.1l-15.9,9.2c-0.6,0.3-0.6,0.8-0.1,1.1l24.1,13.9
		c0.6,0.3,1.3,0.3,1.9-0.1l15.9-9.2C1029.6,681.3,1029.7,680.8,1029.2,680.5L1029.2,680.5z" />
		<path class="st14" d="M1000.7,663.9L976.7,650c-0.6-0.3-1.3-0.2-1.9,0.1l-15.9,9.2c-0.6,0.3-0.6,0.8-0.1,1.1l24.1,13.8
		c0.6,0.3,1.3,0.3,1.9-0.1l15.9-9.2C1001.2,664.7,1001.2,664.2,1000.7,663.9L1000.7,663.9z" />
	</g>
	<path class="st19" d="M1081.1,679.6l-24.1-13.9c-0.5-0.3-0.4-0.8,0.1-1.1l15.9-9.2c0.6-0.3,1.3-0.4,1.9-0.1l24.1,13.9
	c0.5,0.3,0.4,0.8-0.1,1.1l-15.9,9.2C1082.4,679.8,1081.7,679.9,1081.1,679.6z" />
	<path class="st15" d="M1088,674l-16-9.2l6.9-4l16,9.2L1088,674z" />
	<path class="st15" d="M1073.7,661.2l-3-1.7l3-1.7l3,1.7L1073.7,661.2z" />
	<path class="st15" d="M1069.9,663.4l-3-1.7l3-1.7l3,1.7L1069.9,663.4z" />
	<path class="st15" d="M1066.1,665.6l-3-1.7l3-1.7l3,1.7L1066.1,665.6z" />
	<path class="st15" d="M1081.8,677.6l-9.6-5.5l5-2.9l9.6,5.6L1081.8,677.6z" />
	<path class="st19" d="M1052.6,663l-24.1-13.9c-0.5-0.3-0.4-0.8,0.1-1.1l15.9-9.2c0.6-0.3,1.3-0.4,1.9-0.1l24.1,13.9
	c0.5,0.3,0.4,0.8-0.1,1.1l-15.9,9.2C1054,663.2,1053.2,663.2,1052.6,663z" />
	<path class="st15" d="M1059.6,657.4l-16-9.2l6.9-4l16,9.2L1059.6,657.4z" />
	<path class="st15" d="M1045.2,644.6l-3-1.7l3-1.7l3,1.7L1045.2,644.6z" />
	<path class="st15" d="M1041.5,646.8l-3-1.7l3-1.7l3,1.7L1041.5,646.8z" />
	<path class="st15" d="M1037.7,649l-3-1.7l3-1.7l3,1.7L1037.7,649z" />
	<path class="st15" d="M1053.3,661l-9.6-5.5l5-2.9l9.6,5.6L1053.3,661z" />
	<path class="st19" d="M1024.2,646.4l-24.1-13.9c-0.5-0.3-0.4-0.8,0.1-1.1l15.9-9.2c0.6-0.3,1.3-0.4,1.9-0.1l24.1,13.9
	c0.5,0.3,0.4,0.8-0.1,1.1l-15.9,9.2C1025.5,646.6,1024.8,646.6,1024.2,646.4z" />
	<path class="st15" d="M1031.1,640.8l-16-9.2l6.9-4l16,9.2L1031.1,640.8z" />
	<path class="st15" d="M1016.8,628l-3-1.7l3-1.7l3,1.7L1016.8,628z" />
	<path class="st15" d="M1013,630.2l-3-1.7l3-1.7l3,1.7L1013,630.2z" />
	<path class="st15" d="M1009.2,632.3l-3-1.7l3-1.7l3,1.7L1009.2,632.3z" />
	<path class="st15" d="M1024.8,644.4l-9.6-5.6l5-2.9l9.6,5.5L1024.8,644.4z" />
	<path class="st19" d="M1060.4,691.4l-24.1-13.9c-0.5-0.3-0.4-0.8,0.1-1.1l15.9-9.2c0.6-0.3,1.3-0.4,1.9-0.1l24.1,13.9
	c0.5,0.3,0.4,0.8-0.1,1.1l-15.9,9.2C1061.8,691.7,1061,691.7,1060.4,691.4z" />
	<path class="st15" d="M1067.4,685.9l-16-9.2l6.9-4l16,9.2L1067.4,685.9z" />
	<path class="st15" d="M1053,673.1l-3-1.7l3-1.7l3,1.7L1053,673.1z" />
	<path class="st15" d="M1049.2,675.2l-3-1.7l3-1.7l3,1.7L1049.2,675.2z" />
	<path class="st15" d="M1045.5,677.4l-3-1.7l3-1.7l3,1.7L1045.5,677.4z" />
	<path class="st15" d="M1061.1,689.5l-9.6-5.5l5-2.9l9.6,5.6L1061.1,689.5z" />
	<path class="st19" d="M1033.2,671.6l-24.1-13.9c-0.5-0.3-0.4-0.8,0.1-1.1l15.9-9.2c0.6-0.3,1.3-0.4,1.9-0.1l24.1,13.9
	c0.5,0.3,0.4,0.8-0.1,1.1l-15.9,9.2C1034.5,671.8,1033.8,671.9,1033.2,671.6z" />
	<path class="st15" d="M1040.1,666l-16-9.2l6.9-4l16,9.2L1040.1,666z" />
	<path class="st15" d="M1025.8,653.2l-3-1.7l3-1.7l3,1.7L1025.8,653.2z" />
	<path class="st15" d="M1022,655.4l-3-1.7l3-1.7l3,1.7L1022,655.4z" />
	<path class="st15" d="M1018.2,657.6l-3-1.7l3-1.7l3,1.7L1018.2,657.6z" />
	<path class="st15" d="M1033.8,669.6l-9.6-5.6l5-2.9l9.6,5.5L1033.8,669.6z" />
	<path class="st19" d="M1003.5,650.8l-24.1-13.9c-0.5-0.3-0.4-0.8,0.1-1.1l15.9-9.2c0.6-0.3,1.3-0.4,1.9-0.1l24.1,13.9
	c0.5,0.3,0.4,0.8-0.1,1.1l-15.9,9.2C1004.8,651.1,1004.1,651.1,1003.5,650.8L1003.5,650.8z" />
	<path class="st15" d="M1010.4,645.3l-16-9.2l6.9-4l16,9.2L1010.4,645.3z" />
	<path class="st15" d="M996.1,632.5l-3-1.7l3-1.7l3,1.7L996.1,632.5z" />
	<path class="st15" d="M992.3,634.6l-3-1.7l3-1.7l3,1.7L992.3,634.6z" />
	<path class="st15" d="M988.5,636.8l-3-1.7l3-1.7l3,1.7L988.5,636.8z" />
	<path class="st15" d="M1004.2,648.9l-9.6-5.5l5-2.9l9.6,5.6L1004.2,648.9z" />
	<path class="st19" d="M1039.7,703.3l-24.1-13.9c-0.5-0.3-0.4-0.8,0.1-1.1l15.9-9.2c0.6-0.3,1.3-0.4,1.9-0.1l24.1,13.9
	c0.5,0.3,0.4,0.8-0.1,1.1l-15.9,9.2C1041.1,703.5,1040.4,703.6,1039.7,703.3L1039.7,703.3z" />
	<path class="st15" d="M1046.7,697.7l-16-9.2l6.9-4l16,9.2L1046.7,697.7z" />
	<path class="st15" d="M1032.3,684.9l-3-1.7l3-1.7l3,1.7L1032.3,684.9z" />
	<path class="st15" d="M1028.6,687.1l-3-1.7l3-1.7l3,1.7L1028.6,687.1z" />
	<path class="st15" d="M1024.8,689.3l-3-1.7l3-1.7l3,1.7L1024.8,689.3z" />
	<path class="st15" d="M1040.4,701.4l-9.6-5.5l5-2.9l9.6,5.6L1040.4,701.4z" />
	<path class="st19" d="M1011.3,678.3l-24.1-13.9c-0.5-0.3-0.4-0.8,0.1-1.1l15.9-9.2c0.6-0.3,1.3-0.4,1.9-0.1l24.1,13.9
	c0.5,0.3,0.4,0.8-0.1,1.1l-15.9,9.2C1012.6,678.6,1011.9,678.6,1011.3,678.3z" />
	<path class="st15" d="M1018.2,672.8l-16-9.2l6.9-4l16,9.2L1018.2,672.8z" />
	<path class="st15" d="M1003.9,660l-3-1.7l3-1.7l3,1.7L1003.9,660z" />
	<path class="st15" d="M1000.1,662.1l-3-1.7l3-1.7l3,1.7L1000.1,662.1z" />
	<path class="st15" d="M996.3,664.3l-3-1.7l3-1.7l3,1.7L996.3,664.3z" />
	<path class="st15" d="M1012,676.4l-9.6-5.6l5-2.9l9.6,5.5L1012,676.4z" />
	<path class="st19" d="M982.8,655.3l-24.1-13.9c-0.5-0.3-0.4-0.8,0.1-1.1l15.9-9.2c0.6-0.3,1.3-0.4,1.9-0.1l24.1,13.9
	c0.5,0.3,0.4,0.8-0.1,1.1l-15.9,9.2C984.1,655.5,983.4,655.6,982.8,655.3z" />
	<path class="st15" d="M989.8,649.7l-16-9.2l6.9-4l16,9.2L989.8,649.7z" />
	<path class="st15" d="M975.4,636.9l-3-1.7l3-1.7l3,1.7L975.4,636.9z" />
	<path class="st15" d="M971.6,639.1l-3-1.7l3-1.7l3,1.7L971.6,639.1z" />
	<path class="st15" d="M967.9,641.3l-3-1.7l3-1.7l3,1.7L967.9,641.3z" />
	<path class="st15" d="M983.5,653.3l-9.6-5.6l5-2.9l9.6,5.5L983.5,653.3z" />
	<path class="st22" d="M1086.5,691.8l18.7,10.8" />
	<path class="st18" d="M1114.3,704.5c-1.5-0.7-3.3-0.6-4.7,0.2l-1,0.6c-1.2,0-2.5,0.4-3.5,0.9c-2,1.2-2.2,2.9-0.5,3.9
	s4.8,0.9,6.8-0.3c0.8-0.4,1.5-1.2,1.6-2.1l1-0.6C1115.4,706.4,1115.5,705.2,1114.3,704.5L1114.3,704.5z M1113.6,704.9
	c0.9,0.5,0.8,1.4-0.2,2l-0.5,0.3c-0.2-0.5-0.6-0.9-1.1-1.2c-0.6-0.3-1.3-0.6-2.1-0.6l0.5-0.3
	C1111.3,704.4,1112.5,704.4,1113.6,704.9L1113.6,704.9z M1111.1,706.3c1.4,0.8,1.2,2.2-0.4,3.1c-1.6,0.9-4,1-5.4,0.2
	c-1.4-0.8-1.2-2.2,0.4-3.1C1107.3,705.6,1109.6,705.5,1111.1,706.3L1111.1,706.3z M1108.9,707.6c-0.4-0.2-1-0.2-1.4,0.1
	c-0.3,0.2-0.4,0.4-0.3,0.5l-1.2,0.7l0.6,0.4l1.2-0.7c0.3,0,0.7,0,0.9-0.2C1109.2,708.2,1109.2,707.8,1108.9,707.6L1108.9,707.6z" />
</svg>
